tb/Sim_results/SB_tb.vcd
$version Generated by VerilatedVcd $end
$timescale 1ps $end
 $scope module TOP $end
  $scope module SB_tb $end
   $var wire 32 p buffer_size [31:0] $end
   $var wire 1 d clk_800MHz $end
   $var wire 1 e clk_100MHz $end
   $var wire 1 # reset $end
   $var wire 64 f data_i [63:0] $end
   $var wire 1 h valid_i $end
   $var wire 1 $ enable_tx $end
   $var wire 1 , data_valid_ack_o $end
   $var wire 1 X dataPin_o $end
   $var wire 1 i clkPin_o $end
   $var wire 64 ; data_o [63:0] $end
   $var wire 1 = valid_o $end
   $var wire 1 % enable_rx $end
   $var wire 1 j msg_req $end
   $var wire 1 X dataPin_conn $end
   $var wire 1 i clkPin_conn $end
   $var wire 64 & test_data[0] [63:0] $end
   $var wire 64 ( test_data[1] [63:0] $end
   $var wire 64 * test_data[2] [63:0] $end
   $var wire 32 k send_index [31:0] $end
   $var wire 32 l recieve_index [31:0] $end
   $scope module rx_inst $end
    $var wire 32 p buffer_size [31:0] $end
    $var wire 1 d clk_800MHz $end
    $var wire 1 e clk_100MHz $end
    $var wire 1 # reset $end
    $var wire 1 % enable_i $end
    $var wire 1 j msg_req_i $end
    $var wire 1 X dataPin_i $end
    $var wire 1 i clkPin_i $end
    $var wire 64 ; data_o [63:0] $end
    $var wire 1 = valid_o $end
    $var wire 64 O buffer[0] [63:0] $end
    $var wire 64 Q buffer[1] [63:0] $end
    $var wire 64 S buffer[2] [63:0] $end
    $var wire 64 U buffer[3] [63:0] $end
    $var wire 2 W write_index [1:0] $end
    $var wire 2 > read_index [1:0] $end
    $var wire 64 I shift_reg [63:0] $end
    $var wire 6 K bit_cnt [5:0] $end
    $var wire 5 L postTran_cnt [4:0] $end
    $var wire 1 m msg_recieved $end
    $var wire 1 M msg_flag $end
    $var wire 1 n msg_recieved_ack $end
    $var wire 64 ? data_sync_w [63:0] $end
    $var wire 1 A valid_w $end
    $var wire 1 N state [0:0] $end
    $scope module shiftreg_inst $end
     $var wire 32 q DATA_BIT_WIDTH [31:0] $end
     $var wire 1 e clk $end
     $var wire 1 # reset $end
     $var wire 1 m enable $end
     $var wire 1 n enable_ack $end
     $var wire 1 A valid_o $end
     $var wire 64 I d_i [63:0] $end
     $var wire 64 ? q_o [63:0] $end
     $var wire 64 B sync_r[0] [63:0] $end
     $var wire 64 D sync_r[1] [63:0] $end
     $var wire 64 F sync_r[2] [63:0] $end
     $var wire 1 n enable_ack_r $end
     $var wire 3 H valid_r [2:0] $end
    $upscope $end
    $scope module unnamedblk1 $end
     $var wire 32 o i [31:0] $end
    $upscope $end
   $upscope $end
   $scope module tx_inst $end
    $var wire 32 p buffer_size [31:0] $end
    $var wire 1 d clk_800MHz $end
    $var wire 1 # reset $end
    $var wire 64 f data_i [63:0] $end
    $var wire 1 h valid_i $end
    $var wire 1 $ enable_i $end
    $var wire 1 , data_valid_ack_o $end
    $var wire 1 X dataPin_o $end
    $var wire 1 i clkPin_o $end
    $var wire 64 Y buffer[0] [63:0] $end
    $var wire 64 [ buffer[1] [63:0] $end
    $var wire 64 ] buffer[2] [63:0] $end
    $var wire 64 _ buffer[3] [63:0] $end
    $var wire 2 - write_index [1:0] $end
    $var wire 2 a read_index [1:0] $end
    $var wire 5 . ctr_32 [4:0] $end
    $var wire 6 b ctr_64 [5:0] $end
    $var wire 1 / activate_clkPin_r $end
    $var wire 64 0 data_w [63:0] $end
    $var wire 1 2 valid_w $end
    $var wire 1 i clkPin_w $end
    $var wire 2 c state [1:0] $end
    $scope module shiftreg_inst $end
     $var wire 32 q DATA_BIT_WIDTH [31:0] $end
     $var wire 1 d clk $end
     $var wire 1 # reset $end
     $var wire 1 h enable $end
     $var wire 1 , enable_ack $end
     $var wire 1 2 valid_o $end
     $var wire 64 f d_i [63:0] $end
     $var wire 64 0 q_o [63:0] $end
     $var wire 64 3 sync_r[0] [63:0] $end
     $var wire 64 5 sync_r[1] [63:0] $end
     $var wire 64 7 sync_r[2] [63:0] $end
     $var wire 1 , enable_ack_r $end
     $var wire 3 9 valid_r [2:0] $end
    $upscope $end
    $scope module unnamedblk1 $end
     $var wire 32 : i [31:0] $end
    $upscope $end
   $upscope $end
  $upscope $end
 $upscope $end
$enddefinitions $end


#0
1#
0$
0%
b1111111110111011110011001101110100010001001000100011001101000100 &
b0001001000110100010101100111100010010000101010111100110111101111 (
b1101111010101101101111101110111111001010111111101011101010111110 *
0,
b00 -
b00000 .
0/
b0000000000000000000000000000000000000000000000000000000000000000 0
02
b0000000000000000000000000000000000000000000000000000000000000000 3
b0000000000000000000000000000000000000000000000000000000000000000 5
b0000000000000000000000000000000000000000000000000000000000000000 7
b000 9
b00000000000000000000000000000100 :
b0000000000000000000000000000000000000000000000000000000000000000 ;
0=
b00 >
b0000000000000000000000000000000000000000000000000000000000000000 ?
0A
b0000000000000000000000000000000000000000000000000000000000000000 B
b0000000000000000000000000000000000000000000000000000000000000000 D
b0000000000000000000000000000000000000000000000000000000000000000 F
b000 H
b0000000000000000000000000000000000000000000000000000000000000000 I
b000000 K
b00000 L
0M
1N
b0000000000000000000000000000000000000000000000000000000000000000 O
b0000000000000000000000000000000000000000000000000000000000000000 Q
b0000000000000000000000000000000000000000000000000000000000000000 S
b0000000000000000000000000000000000000000000000000000000000000000 U
b00 W
0X
b0000000000000000000000000000000000000000000000000000000000000000 Y
b0000000000000000000000000000000000000000000000000000000000000000 [
b0000000000000000000000000000000000000000000000000000000000000000 ]
b0000000000000000000000000000000000000000000000000000000000000000 _
b00 a
b000000 b
b00 c
0d
0e
b0000000000000000000000000000000000000000000000000000000000000000 f
0h
0i
0j
b00000000000000000000000000000000 k
b00000000000000000000000000000000 l
0m
0n
b00000000000000000000000000000000 o
b00000000000000000000000000000100 p
b00000000000000000000000001000000 q
#625
1d
#1250
0d
#1875
1d
#2500
0d
#3125
1d
#3750
0d
#4375
1d
#5000
0#
0d
1e
1j
#5625
1d
#6250
0d
#6875
1d
#7500
0d
#8125
1d
#8750
0d
#9375
1d
#10000
1%
0d
0e
#10625
1d
#11250
0d
#11875
1d
#12500
0d
#13125
1d
#13750
0d
#14375
1d
#15000
1$
0d
1e
b1111111110111011110011001101110100010001001000100011001101000100 f
1h
#15625
1,
b1111111110111011110011001101110100010001001000100011001101000100 3
b001 9
1d
0h
b00000000000000000000000000000001 k
#16250
0d
#16875
0,
b1111111110111011110011001101110100010001001000100011001101000100 5
b010 9
1d
#17500
0d
#18125
b1111111110111011110011001101110100010001001000100011001101000100 0
12
b1111111110111011110011001101110100010001001000100011001101000100 7
b100 9
1d
#18750
0d
#19375
b01 -
02
b000 9
b1111111110111011110011001101110100010001001000100011001101000100 Y
1d
#20000
0d
0e
#20625
1/
b01 c
1d
1i
#21250
b000001 K
0d
0i
#21875
b000001 b
1d
1i
#22500
b000010 K
0d
0i
#23125
1X
b000010 b
1d
1i
#23750
b1000000000000000000000000000000000000000000000000000000000000000 I
b000011 K
0d
0i
#24375
0X
b000011 b
1d
1i
#25000
b0100000000000000000000000000000000000000000000000000000000000000 I
b000100 K
0d
1e
b0001001000110100010101100111100010010000101010111100110111101111 f
1h
0i
#25625
1,
b0001001000110100010101100111100010010000101010111100110111101111 3
b001 9
b000100 b
1d
0h
1i
b00000000000000000000000000000010 k
#26250
b0010000000000000000000000000000000000000000000000000000000000000 I
b000101 K
0d
0i
#26875
0,
b0001001000110100010101100111100010010000101010111100110111101111 5
b010 9
b000101 b
1d
1i
#27500
b0001000000000000000000000000000000000000000000000000000000000000 I
b000110 K
0d
0i
#28125
b0001001000110100010101100111100010010000101010111100110111101111 0
12
b0001001000110100010101100111100010010000101010111100110111101111 7
b100 9
1X
b000110 b
1d
1i
#28750
b1000100000000000000000000000000000000000000000000000000000000000 I
b000111 K
0d
0i
#29375
b10 -
02
b000 9
0X
b0001001000110100010101100111100010010000101010111100110111101111 [
b000111 b
1d
1i
#30000
b0100010000000000000000000000000000000000000000000000000000000000 I
b001000 K
0d
0e
0i
#30625
1X
b001000 b
1d
1i
#31250
b1010001000000000000000000000000000000000000000000000000000000000 I
b001001 K
0d
0i
#31875
b001001 b
1d
1i
#32500
b1101000100000000000000000000000000000000000000000000000000000000 I
b001010 K
0d
0i
#33125
0X
b001010 b
1d
1i
#33750
b0110100010000000000000000000000000000000000000000000000000000000 I
b001011 K
0d
0i
#34375
b001011 b
1d
1i
#35000
b0011010001000000000000000000000000000000000000000000000000000000 I
b001100 K
0d
1e
b1101111010101101101111101110111111001010111111101011101010111110 f
1h
0i
#35625
1,
b1101111010101101101111101110111111001010111111101011101010111110 3
b001 9
1X
b001100 b
1d
0h
1i
b00000000000000000000000000000011 k
#36250
b1001101000100000000000000000000000000000000000000000000000000000 I
b001101 K
0d
0i
#36875
0,
b1101111010101101101111101110111111001010111111101011101010111110 5
b010 9
b001101 b
1d
1i
#37500
b1100110100010000000000000000000000000000000000000000000000000000 I
b001110 K
0d
0i
#38125
b1101111010101101101111101110111111001010111111101011101010111110 0
12
b1101111010101101101111101110111111001010111111101011101010111110 7
b100 9
0X
b001110 b
1d
1i
#38750
b0110011010001000000000000000000000000000000000000000000000000000 I
b001111 K
0d
0i
#39375
b11 -
02
b000 9
b1101111010101101101111101110111111001010111111101011101010111110 ]
b001111 b
1d
1i
#40000
b0011001101000100000000000000000000000000000000000000000000000000 I
b010000 K
0d
0e
0i
#40625
b010000 b
1d
1i
#41250
b0001100110100010000000000000000000000000000000000000000000000000 I
b010001 K
0d
0i
#41875
1X
b010001 b
1d
1i
#42500
b1000110011010001000000000000000000000000000000000000000000000000 I
b010010 K
0d
0i
#43125
0X
b010010 b
1d
1i
#43750
b0100011001101000100000000000000000000000000000000000000000000000 I
b010011 K
0d
0i
#44375
b010011 b
1d
1i
#45000
b0010001100110100010000000000000000000000000000000000000000000000 I
b010100 K
0d
1e
0i
#45625
b010100 b
1d
1i
#46250
b0001000110011010001000000000000000000000000000000000000000000000 I
b010101 K
0d
0i
#46875
1X
b010101 b
1d
1i
#47500
b1000100011001101000100000000000000000000000000000000000000000000 I
b010110 K
0d
0i
#48125
0X
b010110 b
1d
1i
#48750
b0100010001100110100010000000000000000000000000000000000000000000 I
b010111 K
0d
0i
#49375
b010111 b
1d
1i
#50000
b0010001000110011010001000000000000000000000000000000000000000000 I
b011000 K
0d
0e
0i
#50625
1X
b011000 b
1d
1i
#51250
b1001000100011001101000100000000000000000000000000000000000000000 I
b011001 K
0d
0i
#51875
0X
b011001 b
1d
1i
#52500
b0100100010001100110100010000000000000000000000000000000000000000 I
b011010 K
0d
0i
#53125
b011010 b
1d
1i
#53750
b0010010001000110011010001000000000000000000000000000000000000000 I
b011011 K
0d
0i
#54375
b011011 b
1d
1i
#55000
b0001001000100011001101000100000000000000000000000000000000000000 I
b011100 K
0d
1e
0i
#55625
1X
b011100 b
1d
1i
#56250
b1000100100010001100110100010000000000000000000000000000000000000 I
b011101 K
0d
0i
#56875
0X
b011101 b
1d
1i
#57500
b0100010010001000110011010001000000000000000000000000000000000000 I
b011110 K
0d
0i
#58125
b011110 b
1d
1i
#58750
b0010001001000100011001101000100000000000000000000000000000000000 I
b011111 K
0d
0i
#59375
b011111 b
1d
1i
#60000
b0001000100100010001100110100010000000000000000000000000000000000 I
b100000 K
0d
0e
0i
#60625
1X
b100000 b
1d
1i
#61250
b1000100010010001000110011010001000000000000000000000000000000000 I
b100001 K
0d
0i
#61875
0X
b100001 b
1d
1i
#62500
b0100010001001000100011001101000100000000000000000000000000000000 I
b100010 K
0d
0i
#63125
1X
b100010 b
1d
1i
#63750
b1010001000100100010001100110100010000000000000000000000000000000 I
b100011 K
0d
0i
#64375
b100011 b
1d
1i
#65000
b1101000100010010001000110011010001000000000000000000000000000000 I
b100100 K
0d
1e
0i
#65625
b100100 b
1d
1i
#66250
b1110100010001001000100011001101000100000000000000000000000000000 I
b100101 K
0d
0i
#66875
0X
b100101 b
1d
1i
#67500
b0111010001000100100010001100110100010000000000000000000000000000 I
b100110 K
0d
0i
#68125
1X
b100110 b
1d
1i
#68750
b1011101000100010010001000110011010001000000000000000000000000000 I
b100111 K
0d
0i
#69375
b100111 b
1d
1i
#70000
b1101110100010001001000100011001101000100000000000000000000000000 I
b101000 K
0d
0e
0i
#70625
0X
b101000 b
1d
1i
#71250
b0110111010001000100100010001100110100010000000000000000000000000 I
b101001 K
0d
0i
#71875
b101001 b
1d
1i
#72500
b0011011101000100010010001000110011010001000000000000000000000000 I
b101010 K
0d
0i
#73125
1X
b101010 b
1d
1i
#73750
b1001101110100010001001000100011001101000100000000000000000000000 I
b101011 K
0d
0i
#74375
b101011 b
1d
1i
#75000
b1100110111010001000100100010001100110100010000000000000000000000 I
b101100 K
0d
1e
0i
#75625
0X
b101100 b
1d
1i
#76250
b0110011011101000100010010001000110011010001000000000000000000000 I
b101101 K
0d
0i
#76875
b101101 b
1d
1i
#77500
b0011001101110100010001001000100011001101000100000000000000000000 I
b101110 K
0d
0i
#78125
1X
b101110 b
1d
1i
#78750
b1001100110111010001000100100010001100110100010000000000000000000 I
b101111 K
0d
0i
#79375
b101111 b
1d
1i
#80000
b1100110011011101000100010010001000110011010001000000000000000000 I
b110000 K
0d
0e
0i
#80625
b110000 b
1d
1i
#81250
b1110011001101110100010001001000100011001101000100000000000000000 I
b110001 K
0d
0i
#81875
b110001 b
1d
1i
#82500
b1111001100110111010001000100100010001100110100010000000000000000 I
b110010 K
0d
0i
#83125
0X
b110010 b
1d
1i
#83750
b0111100110011011101000100010010001000110011010001000000000000000 I
b110011 K
0d
0i
#84375
1X
b110011 b
1d
1i
#85000
b1011110011001101110100010001001000100011001101000100000000000000 I
b110100 K
0d
1e
0i
#85625
b110100 b
1d
1i
#86250
b1101111001100110111010001000100100010001100110100010000000000000 I
b110101 K
0d
0i
#86875
b110101 b
1d
1i
#87500
b1110111100110011011101000100010010001000110011010001000000000000 I
b110110 K
0d
0i
#88125
0X
b110110 b
1d
1i
#88750
b0111011110011001101110100010001001000100011001101000100000000000 I
b110111 K
0d
0i
#89375
1X
b110111 b
1d
1i
#90000
b1011101111001100110111010001000100100010001100110100010000000000 I
b111000 K
0d
0e
0i
#90625
b111000 b
1d
1i
#91250
b1101110111100110011011101000100010010001000110011010001000000000 I
b111001 K
0d
0i
#91875
b111001 b
1d
1i
#92500
b1110111011110011001101110100010001001000100011001101000100000000 I
b111010 K
0d
0i
#93125
b111010 b
1d
1i
#93750
b1111011101111001100110111010001000100100010001100110100010000000 I
b111011 K
0d
0i
#94375
b111011 b
1d
1i
#95000
b1111101110111100110011011101000100010010001000110011010001000000 I
b111100 K
0d
1e
0i
#95625
b111100 b
1d
1i
#96250
b1111110111011110011001101110100010001001000100011001101000100000 I
b111101 K
0d
0i
#96875
b111101 b
1d
1i
#97500
b1111111011101111001100110111010001000100100010001100110100010000 I
b111110 K
0d
0i
#98125
b111110 b
1d
1i
#98750
b1111111101110111100110011011101000100010010001000110011010001000 I
b111111 K
0d
0i
#99375
b111111 b
1d
1i
#100000
b1111111110111011110011001101110100010001001000100011001101000100 I
b000000 K
1M
0N
0d
0e
0i
#100625
0X
b01 a
b000000 b
b10 c
1d
1i
1m
#101250
b00001 L
0d
0i
#101875
b00001 .
1d
1i
#102500
b00010 L
0d
0i
#103125
b00010 .
1d
1i
#103750
b00011 L
0d
0i
#104375
b00011 .
1d
1i
#105000
b1111111110111011110011001101110100010001001000100011001101000100 B
b001 H
b00100 L
0d
1e
0i
0m
1n
#105625
b00100 .
1d
1i
#106250
b00101 L
0M
0d
0i
#106875
b00101 .
1d
1i
#107500
b00110 L
0d
0i
#108125
b00110 .
1d
1i
#108750
b00111 L
0d
0i
#109375
b00111 .
1d
1i
#110000
b01000 L
0d
0e
0i
#110625
b01000 .
1d
1i
#111250
b01001 L
0d
0i
#111875
b01001 .
1d
1i
#112500
b01010 L
0d
0i
#113125
b01010 .
1d
1i
#113750
b01011 L
0d
0i
#114375
b01011 .
1d
1i
#115000
b1111111110111011110011001101110100010001001000100011001101000100 D
b010 H
b01100 L
0d
1e
0i
0n
#115625
b01100 .
1d
1i
#116250
b01101 L
0d
0i
#116875
b01101 .
1d
1i
#117500
b01110 L
0d
0i
#118125
b01110 .
1d
1i
#118750
b01111 L
0d
0i
#119375
b01111 .
1d
1i
#120000
b10000 L
0d
0e
0i
#120625
b10000 .
1d
1i
#121250
b10001 L
0d
0i
#121875
b10001 .
1d
1i
#122500
b10010 L
0d
0i
#123125
b10010 .
1d
1i
#123750
b10011 L
0d
0i
#124375
b10011 .
1d
1i
#125000
b1111111110111011110011001101110100010001001000100011001101000100 ?
1A
b1111111110111011110011001101110100010001001000100011001101000100 F
b100 H
b10100 L
0d
1e
0i
#125625
b10100 .
1d
1i
#126250
b10101 L
0d
0i
#126875
b10101 .
1d
1i
#127500
b10110 L
0d
0i
#128125
b10110 .
1d
1i
#128750
b10111 L
0d
0i
#129375
b10111 .
1d
1i
#130000
b11000 L
0d
0e
0i
#130625
b11000 .
1d
1i
#131250
b11001 L
0d
0i
#131875
b11001 .
1d
1i
#132500
b11010 L
0d
0i
#133125
b11010 .
1d
1i
#133750
b11011 L
0d
0i
#134375
b11011 .
1d
1i
#135000
0A
b000 H
b11100 L
b1111111110111011110011001101110100010001001000100011001101000100 O
b01 W
0d
1e
0i
#135625
b11100 .
1d
1i
#136250
b11101 L
0d
0i
#136875
b11101 .
1d
1i
#137500
b11110 L
0d
0i
#138125
b11110 .
1d
1i
#138750
b11111 L
0d
0i
#139375
b11111 .
1d
1i
#140000
b00000 L
1N
0d
0e
0i
#140625
b00000 .
1X
b01 c
1d
1i
#141250
b1111111111011101111001100110111010001000100100010001100110100010 I
b000001 K
0d
0i
#141875
b000001 b
1d
1i
#142500
b1111111111101110111100110011011101000100010010001000110011010001 I
b000010 K
0d
0i
#143125
b000010 b
1d
1i
#143750
b1111111111110111011110011001101110100010001001000100011001101000 I
b000011 K
0d
0i
#144375
b000011 b
1d
1i
#145000
b1111111110111011110011001101110100010001001000100011001101000100 ;
1=
b01 >
b1111111111111011101111001100110111010001000100100010001100110100 I
b000100 K
0d
1e
0i
#145625
0X
b000100 b
1d
1i
#146250
b0111111111111101110111100110011011101000100010010001000110011010 I
b000101 K
0d
0i
#146875
1X
b000101 b
1d
1i
#147500
b1011111111111110111011110011001101110100010001001000100011001101 I
b000110 K
0d
0i
#148125
b000110 b
1d
1i
#148750
b1101111111111111011101111001100110111010001000100100010001100110 I
b000111 K
0d
0i
#149375
b000111 b
1d
1i
#150000
b1110111111111111101110111100110011011101000100010010001000110011 I
b001000 K
0d
0e
0i
#150625
b001000 b
1d
1i
#151250
b1111011111111111110111011110011001101110100010001001000100011001 I
b001001 K
0d
0i
#151875
0X
b001001 b
1d
1i
#152500
b0111101111111111111011101111001100110111010001000100100010001100 I
b001010 K
0d
0i
#153125
1X
b001010 b
1d
1i
#153750
b1011110111111111111101110111100110011011101000100010010001000110 I
b001011 K
0d
0i
#154375
b001011 b
1d
1i
#155000
b1101111011111111111110111011110011001101110100010001001000100011 I
b001100 K
0d
1e
0i
0j
b00000000000000000000000000000001 l
#155625
0X
b001100 b
1d
1i
#156250
b0110111101111111111111011101111001100110111010001000100100010001 I
b001101 K
0d
0i
#156875
b001101 b
1d
1i
#157500
b0011011110111111111111101110111100110011011101000100010010001000 I
b001110 K
0d
0i
#158125
1X
b001110 b
1d
1i
#158750
b1001101111011111111111110111011110011001101110100010001001000100 I
b001111 K
0d
0i
#159375
b001111 b
1d
1i
#160000
b1100110111101111111111111011101111001100110111010001000100100010 I
b010000 K
0d
0e
0i
#160625
b010000 b
1d
1i
#161250
b1110011011110111111111111101110111100110011011101000100010010001 I
b010001 K
0d
0i
#161875
b010001 b
1d
1i
#162500
b1111001101111011111111111110111011110011001101110100010001001000 I
b010010 K
0d
0i
#163125
0X
b010010 b
1d
1i
#163750
b0111100110111101111111111111011101111001100110111010001000100100 I
b010011 K
0d
0i
#164375
1X
b010011 b
1d
1i
#165000
0=
b1011110011011110111111111111101110111100110011011101000100010010 I
b010100 K
0d
1e
0i
1j
#165625
0X
b010100 b
1d
1i
#166250
b0101111001101111011111111111110111011110011001101110100010001001 I
b010101 K
0d
0i
#166875
1X
b010101 b
1d
1i
#167500
b1010111100110111101111111111111011101111001100110111010001000100 I
b010110 K
0d
0i
#168125
0X
b010110 b
1d
1i
#168750
b0101011110011011110111111111111101110111100110011011101000100010 I
b010111 K
0d
0i
#169375
1X
b010111 b
1d
1i
#170000
b1010101111001101111011111111111110111011110011001101110100010001 I
b011000 K
0d
0e
0i
#170625
0X
b011000 b
1d
1i
#171250
b0101010111100110111101111111111111011101111001100110111010001000 I
b011001 K
0d
0i
#171875
b011001 b
1d
1i
#172500
b0010101011110011011110111111111111101110111100110011011101000100 I
b011010 K
0d
0i
#173125
b011010 b
1d
1i
#173750
b0001010101111001101111011111111111110111011110011001101110100010 I
b011011 K
0d
0i
#174375
b011011 b
1d
1i
#175000
b0000101010111100110111101111111111111011101111001100110111010001 I
b011100 K
0d
1e
0i
#175625
1X
b011100 b
1d
1i
#176250
b1000010101011110011011110111111111111101110111100110011011101000 I
b011101 K
0d
0i
#176875
0X
b011101 b
1d
1i
#177500
b0100001010101111001101111011111111111110111011110011001101110100 I
b011110 K
0d
0i
#178125
b011110 b
1d
1i
#178750
b0010000101010111100110111101111111111111011101111001100110111010 I
b011111 K
0d
0i
#179375
1X
b011111 b
1d
1i
#180000
b1001000010101011110011011110111111111111101110111100110011011101 I
b100000 K
0d
0e
0i
#180625
0X
b100000 b
1d
1i
#181250
b0100100001010101111001101111011111111111110111011110011001101110 I
b100001 K
0d
0i
#181875
b100001 b
1d
1i
#182500
b0010010000101010111100110111101111111111111011101111001100110111 I
b100010 K
0d
0i
#183125
b100010 b
1d
1i
#183750
b0001001000010101011110011011110111111111111101110111100110011011 I
b100011 K
0d
0i
#184375
1X
b100011 b
1d
1i
#185000
b1000100100001010101111001101111011111111111110111011110011001101 I
b100100 K
0d
1e
0i
#185625
b100100 b
1d
1i
#186250
b1100010010000101010111100110111101111111111111011101111001100110 I
b100101 K
0d
0i
#186875
b100101 b
1d
1i
#187500
b1110001001000010101011110011011110111111111111101110111100110011 I
b100110 K
0d
0i
#188125
b100110 b
1d
1i
#188750
b1111000100100001010101111001101111011111111111110111011110011001 I
b100111 K
0d
0i
#189375
0X
b100111 b
1d
1i
#190000
b0111100010010000101010111100110111101111111111111011101111001100 I
b101000 K
0d
0e
0i
#190625
b101000 b
1d
1i
#191250
b0011110001001000010101011110011011110111111111111101110111100110 I
b101001 K
0d
0i
#191875
1X
b101001 b
1d
1i
#192500
b1001111000100100001010101111001101111011111111111110111011110011 I
b101010 K
0d
0i
#193125
b101010 b
1d
1i
#193750
b1100111100010010000101010111100110111101111111111111011101111001 I
b101011 K
0d
0i
#194375
0X
b101011 b
1d
1i
#195000
b0110011110001001000010101011110011011110111111111111101110111100 I
b101100 K
0d
1e
0i
#195625
1X
b101100 b
1d
1i
#196250
b1011001111000100100001010101111001101111011111111111110111011110 I
b101101 K
0d
0i
#196875
0X
b101101 b
1d
1i
#197500
b0101100111100010010000101010111100110111101111111111111011101111 I
b101110 K
0d
0i
#198125
1X
b101110 b
1d
1i
#198750
b1010110011110001001000010101011110011011110111111111111101110111 I
b101111 K
0d
0i
#199375
0X
b101111 b
1d
1i
#200000
b0101011001111000100100001010101111001101111011111111111110111011 I
b110000 K
0d
0e
0i
#200625
b110000 b
1d
1i
#201250
b0010101100111100010010000101010111100110111101111111111111011101 I
b110001 K
0d
0i
#201875
b110001 b
1d
1i
#202500
b0001010110011110001001000010101011110011011110111111111111101110 I
b110010 K
0d
0i
#203125
1X
b110010 b
1d
1i
#203750
b1000101011001111000100100001010101111001101111011111111111110111 I
b110011 K
0d
0i
#204375
0X
b110011 b
1d
1i
#205000
b0100010101100111100010010000101010111100110111101111111111111011 I
b110100 K
0d
1e
0i
#205625
1X
b110100 b
1d
1i
#206250
b1010001010110011110001001000010101011110011011110111111111111101 I
b110101 K
0d
0i
#206875
b110101 b
1d
1i
#207500
b1101000101011001111000100100001010101111001101111011111111111110 I
b110110 K
0d
0i
#208125
0X
b110110 b
1d
1i
#208750
b0110100010101100111100010010000101010111100110111101111111111111 I
b110111 K
0d
0i
#209375
b110111 b
1d
1i
#210000
b0011010001010110011110001001000010101011110011011110111111111111 I
b111000 K
0d
0e
0i
#210625
b111000 b
1d
1i
#211250
b0001101000101011001111000100100001010101111001101111011111111111 I
b111001 K
0d
0i
#211875
1X
b111001 b
1d
1i
#212500
b1000110100010101100111100010010000101010111100110111101111111111 I
b111010 K
0d
0i
#213125
0X
b111010 b
1d
1i
#213750
b0100011010001010110011110001001000010101011110011011110111111111 I
b111011 K
0d
0i
#214375
b111011 b
1d
1i
#215000
b0010001101000101011001111000100100001010101111001101111011111111 I
b111100 K
0d
1e
0i
#215625
1X
b111100 b
1d
1i
#216250
b1001000110100010101100111100010010000101010111100110111101111111 I
b111101 K
0d
0i
#216875
0X
b111101 b
1d
1i
#217500
b0100100011010001010110011110001001000010101011110011011110111111 I
b111110 K
0d
0i
#218125
b111110 b
1d
1i
#218750
b0010010001101000101011001111000100100001010101111001101111011111 I
b111111 K
0d
0i
#219375
b111111 b
1d
1i
#220000
b0001001000110100010101100111100010010000101010111100110111101111 I
b000000 K
1M
0N
0d
0e
0i
#220625
b10 a
b000000 b
b10 c
1d
1i
1m
#221250
b00001 L
0d
0i
#221875
b00001 .
1d
1i
#222500
b00010 L
0d
0i
#223125
b00010 .
1d
1i
#223750
b00011 L
0d
0i
#224375
b00011 .
1d
1i
#225000
b0001001000110100010101100111100010010000101010111100110111101111 B
b001 H
b00100 L
0d
1e
0i
0m
1n
#225625
b00100 .
1d
1i
#226250
b00101 L
0M
0d
0i
#226875
b00101 .
1d
1i
#227500
b00110 L
0d
0i
#228125
b00110 .
1d
1i
#228750
b00111 L
0d
0i
#229375
b00111 .
1d
1i
#230000
b01000 L
0d
0e
0i
#230625
b01000 .
1d
1i
#231250
b01001 L
0d
0i
#231875
b01001 .
1d
1i
#232500
b01010 L
0d
0i
#233125
b01010 .
1d
1i
#233750
b01011 L
0d
0i
#234375
b01011 .
1d
1i
#235000
b0001001000110100010101100111100010010000101010111100110111101111 D
b010 H
b01100 L
0d
1e
0i
0n
#235625
b01100 .
1d
1i
#236250
b01101 L
0d
0i
#236875
b01101 .
1d
1i
#237500
b01110 L
0d
0i
#238125
b01110 .
1d
1i
#238750
b01111 L
0d
0i
#239375
b01111 .
1d
1i
#240000
b10000 L
0d
0e
0i
#240625
b10000 .
1d
1i
#241250
b10001 L
0d
0i
#241875
b10001 .
1d
1i
#242500
b10010 L
0d
0i
#243125
b10010 .
1d
1i
#243750
b10011 L
0d
0i
#244375
b10011 .
1d
1i
#245000
b0001001000110100010101100111100010010000101010111100110111101111 ?
1A
b0001001000110100010101100111100010010000101010111100110111101111 F
b100 H
b10100 L
0d
1e
0i
#245625
b10100 .
1d
1i
#246250
b10101 L
0d
0i
#246875
b10101 .
1d
1i
#247500
b10110 L
0d
0i
#248125
b10110 .
1d
1i
#248750
b10111 L
0d
0i
#249375
b10111 .
1d
1i
#250000
b11000 L
0d
0e
0i
#250625
b11000 .
1d
1i
#251250
b11001 L
0d
0i
#251875
b11001 .
1d
1i
#252500
b11010 L
0d
0i
#253125
b11010 .
1d
1i
#253750
b11011 L
0d
0i
#254375
b11011 .
1d
1i
#255000
0A
b000 H
b11100 L
b0001001000110100010101100111100010010000101010111100110111101111 Q
b10 W
0d
1e
0i
#255625
b11100 .
1d
1i
#256250
b11101 L
0d
0i
#256875
b11101 .
1d
1i
#257500
b11110 L
0d
0i
#258125
b11110 .
1d
1i
#258750
b11111 L
0d
0i
#259375
b11111 .
1d
1i
#260000
b00000 L
1N
0d
0e
0i
#260625
b00000 .
b01 c
1d
1i
#261250
b0000100100011010001010110011110001001000010101011110011011110111 I
b000001 K
0d
0i
#261875
1X
b000001 b
1d
1i
#262500
b1000010010001101000101011001111000100100001010101111001101111011 I
b000010 K
0d
0i
#263125
b000010 b
1d
1i
#263750
b1100001001000110100010101100111100010010000101010111100110111101 I
b000011 K
0d
0i
#264375
b000011 b
1d
1i
#265000
b0001001000110100010101100111100010010000101010111100110111101111 ;
1=
b10 >
b1110000100100011010001010110011110001001000010101011110011011110 I
b000100 K
0d
1e
0i
#265625
b000100 b
1d
1i
#266250
b1111000010010001101000101011001111000100100001010101111001101111 I
b000101 K
0d
0i
#266875
b000101 b
1d
1i
#267500
b1111100001001000110100010101100111100010010000101010111100110111 I
b000110 K
0d
0i
#268125
0X
b000110 b
1d
1i
#268750
b0111110000100100011010001010110011110001001000010101011110011011 I
b000111 K
0d
0i
#269375
1X
b000111 b
1d
1i
#270000
b1011111000010010001101000101011001111000100100001010101111001101 I
b001000 K
0d
0e
0i
#270625
0X
b001000 b
1d
1i
#271250
b0101111100001001000110100010101100111100010010000101010111100110 I
b001001 K
0d
0i
#271875
1X
b001001 b
1d
1i
#272500
b1010111110000100100011010001010110011110001001000010101011110011 I
b001010 K
0d
0i
#273125
0X
b001010 b
1d
1i
#273750
b0101011111000010010001101000101011001111000100100001010101111001 I
b001011 K
0d
0i
#274375
1X
b001011 b
1d
1i
#275000
b1010101111100001001000110100010101100111100010010000101010111100 I
b001100 K
0d
1e
0i
0j
b00000000000000000000000000000010 l
#275625
b001100 b
1d
1i
#276250
b1101010111110000100100011010001010110011110001001000010101011110 I
b001101 K
0d
0i
#276875
b001101 b
1d
1i
#277500
b1110101011111000010010001101000101011001111000100100001010101111 I
b001110 K
0d
0i
#278125
0X
b001110 b
1d
1i
#278750
b0111010101111100001001000110100010101100111100010010000101010111 I
b001111 K
0d
0i
#279375
1X
b001111 b
1d
1i
