tb/Sim_results/SBcodex_tb.vcd
$version Generated by VerilatedVcd $end
$timescale 1ps $end
 $scope module TOP $end
  $scope module $unit $end
   $var wire 74 @! reset_SB_msg__Vstatic__msg [73:0] $end
  $upscope $end
  $scope module SB_tb $end
   $var wire 32 C! fast_buffer_size [31:0] $end
   $var wire 32 D! slow_buffer_size [31:0] $end
   $var wire 1 #! clk_800MHz $end
   $var wire 1 $! clk_100MHz $end
   $var wire 1 %! reset $end
   $var wire 64 &! dataBus_i [63:0] $end
   $var wire 1 (! valid_i $end
   $var wire 1 )! enable_tx $end
   $var wire 74 *! SB_msg_i [73:0] $end
   $var wire 1 -! send_next_flag_o $end
   $var wire 1 .! dataPin_o $end
   $var wire 1 /! clkPin_o $end
   $var wire 64 V data_o [63:0] $end
   $var wire 74 X SB_msg_o [73:0] $end
   $var wire 1 [ valid_o $end
   $var wire 1 0! enable_rx $end
   $var wire 1 1! msg_req $end
   $var wire 1 .! dataPin_conn $end
   $var wire 1 /! clkPin_conn $end
   $var wire 74 # test_msgs[0] [73:0] $end
   $var wire 74 & test_msgs[1] [73:0] $end
   $var wire 74 ) test_msgs[2] [73:0] $end
   $var wire 74 , test_msgs[3] [73:0] $end
   $var wire 64 / test_data[0] [63:0] $end
   $var wire 64 1 test_data[1] [63:0] $end
   $var wire 64 3 test_data[2] [63:0] $end
   $var wire 64 5 test_data[3] [63:0] $end
   $var wire 32 l send_index [31:0] $end
   $var wire 32 \ recieve_index [31:0] $end
   $scope module rx_inst $end
    $var wire 32 D! slow_buffer_size [31:0] $end
    $var wire 1 #! clk_800MHz $end
    $var wire 1 $! clk_100MHz $end
    $var wire 1 %! reset $end
    $var wire 1 0! enable_i $end
    $var wire 1 1! msg_req_i $end
    $var wire 1 .! dataPin_i $end
    $var wire 1 /! clkPin_i $end
    $var wire 64 V data_o [63:0] $end
    $var wire 74 X SB_msg_o [73:0] $end
    $var wire 1 [ valid_o $end
    $var wire 64 b buffer[0] [63:0] $end
    $var wire 64 d buffer[1] [63:0] $end
    $var wire 64 f buffer[2] [63:0] $end
    $var wire 64 h buffer[3] [63:0] $end
    $var wire 2 j write_index [1:0] $end
    $var wire 2 ] read_index [1:0] $end
    $var wire 64 } shift_reg [63:0] $end
    $var wire 6 !! bit_cnt [5:0] $end
    $var wire 1 2! msg_recieved $end
    $var wire 1 "! msg_valid $end
    $var wire 1 m msg_recieved_ack $end
    $var wire 64 n data_sync_w [63:0] $end
    $var wire 1 p valid_w $end
    $var wire 1 ^ expect_32b_data_r $end
    $var wire 1 _ expect_64b_data_r $end
    $var wire 1 x expect_32b_data_w $end
    $var wire 1 y expect_64b_data_w $end
    $var wire 74 z decoded_SB_msg [73:0] $end
    $scope module shiftreg_inst $end
     $var wire 32 E! DATA_BIT_WIDTH [31:0] $end
     $var wire 1 $! clk $end
     $var wire 1 %! reset $end
     $var wire 1 2! enable $end
     $var wire 1 m enable_ack $end
     $var wire 1 p valid_o $end
     $var wire 64 } d_i [63:0] $end
     $var wire 64 n q_o [63:0] $end
     $var wire 64 q sync_r[0] [63:0] $end
     $var wire 64 s sync_r[1] [63:0] $end
     $var wire 64 u sync_r[2] [63:0] $end
     $var wire 1 m enable_ack_r $end
     $var wire 3 w valid_r [2:0] $end
    $upscope $end
    $scope module unnamedblk1 $end
     $var wire 32 k i [31:0] $end
    $upscope $end
   $upscope $end
   $scope module tx_inst $end
    $var wire 32 C! fast_buffer_size [31:0] $end
    $var wire 1 $! clk_100MHz $end
    $var wire 1 #! clk_800MHz $end
    $var wire 1 %! reset $end
    $var wire 64 &! dataBus_i [63:0] $end
    $var wire 74 *! SB_msg_i [73:0] $end
    $var wire 1 (! valid_i $end
    $var wire 1 )! enable_i $end
    $var wire 1 -! send_next_flag_o $end
    $var wire 1 .! dataPin_o $end
    $var wire 1 /! clkPin_o $end
    $var wire 64 7 buffer[0] [63:0] $end
    $var wire 64 9 buffer[1] [63:0] $end
    $var wire 64 ; buffer[2] [63:0] $end
    $var wire 64 = buffer[3] [63:0] $end
    $var wire 64 ? buffer[4] [63:0] $end
    $var wire 64 A buffer[5] [63:0] $end
    $var wire 64 C buffer[6] [63:0] $end
    $var wire 64 E buffer[7] [63:0] $end
    $var wire 3 G write_index [2:0] $end
    $var wire 3 H read_index [2:0] $end
    $var wire 5 I ctr_32 [4:0] $end
    $var wire 6 3! ctr_64 [5:0] $end
    $var wire 1 4! clk_active_r $end
    $var wire 64 J data_w [63:0] $end
    $var wire 1 L valid_w $end
    $var wire 1 /! clkPin_w $end
    $var wire 1 5! valid_ShiftReg_flag $end
    $var wire 1 6! data_valid_ack_o $end
    $var wire 64 7! Stored_data_r [63:0] $end
    $var wire 64 9! ShiftReg_data_w [63:0] $end
    $var wire 64 ;! encoded_msg_w [63:0] $end
    $var wire 1 =! expect_32b_data_w $end
    $var wire 1 >! expect_64b_data_w $end
    $var wire 1 ` expect_32b_data_r $end
    $var wire 1 a expect_64b_data_r $end
    $var wire 1 ?! delay1 $end
    $var wire 2 M state [1:0] $end
    $scope module shiftreg_inst $end
     $var wire 32 E! DATA_BIT_WIDTH [31:0] $end
     $var wire 1 #! clk $end
     $var wire 1 %! reset $end
     $var wire 1 5! enable $end
     $var wire 1 6! enable_ack $end
     $var wire 1 L valid_o $end
     $var wire 64 9! d_i [63:0] $end
     $var wire 64 J q_o [63:0] $end
     $var wire 64 N sync_r[0] [63:0] $end
     $var wire 64 P sync_r[1] [63:0] $end
     $var wire 64 R sync_r[2] [63:0] $end
     $var wire 1 6! enable_ack_r $end
     $var wire 3 T valid_r [2:0] $end
    $upscope $end
    $scope module unnamedblk1 $end
     $var wire 32 U i [31:0] $end
    $upscope $end
   $upscope $end
  $upscope $end
 $upscope $end
$enddefinitions $end


#0
b01010010100010000000000000000000000000000000000000000000101111101110111100 #
b00110010000000000000000000000000000000000000000000000000000100100011010000 &
b00000000000000000011111111101000100100011010001010110000000000000000000000 )
b00001001001001001110000111100011001010100001100100001000000000000000000000 ,
b0000000000000000000000000000000000000000000000000000000000000000 /
b0000000000000000000000000000000000000000000000000000000000000000 1
b1010101010111011110011001101110100010001001000100011001101000100 3
b1100101011111110101110101011111011011110101011011011111011101111 5
b0000000000000000000000000000000000000000000000000000000000000000 7
b0000000000000000000000000000000000000000000000000000000000000000 9
b0000000000000000000000000000000000000000000000000000000000000000 ;
b0000000000000000000000000000000000000000000000000000000000000000 =
b0000000000000000000000000000000000000000000000000000000000000000 ?
b0000000000000000000000000000000000000000000000000000000000000000 A
b0000000000000000000000000000000000000000000000000000000000000000 C
b0000000000000000000000000000000000000000000000000000000000000000 E
b000 G
b000 H
b00000 I
b0000000000000000000000000000000000000000000000000000000000000000 J
0L
b00 M
b0000000000000000000000000000000000000000000000000000000000000000 N
b0000000000000000000000000000000000000000000000000000000000000000 P
b0000000000000000000000000000000000000000000000000000000000000000 R
b000 T
b00000000000000000000000000001000 U
b0000000000000000000000000000000000000000000000000000000000000000 V
b00000000000000000000000000000000000000000000000000000000000000000000000000 X
0[
b00000000000000000000000000000000 \
b00 ]
0^
0_
0`
0a
b0000000000000000000000000000000000000000000000000000000000000000 b
b0000000000000000000000000000000000000000000000000000000000000000 d
b0000000000000000000000000000000000000000000000000000000000000000 f
b0000000000000000000000000000000000000000000000000000000000000000 h
b00 j
b00000000000000000000000000000000 k
b00000000000000000000000000000000 l
0m
b0000000000000000000000000000000000000000000000000000000000000000 n
0p
b0000000000000000000000000000000000000000000000000000000000000000 q
b0000000000000000000000000000000000000000000000000000000000000000 s
b0000000000000000000000000000000000000000000000000000000000000000 u
b000 w
1x
0y
b00000000000000000000000000000000000000000000000000000000000000000000000000 z
b0000000000000000000000000000000000000000000000000000000000000000 }
b000000 !!
0"!
0#!
0$!
1%!
b0000000000000000000000000000000000000000000000000000000000000000 &!
0(!
0)!
b00000000000000000000000000000000000000000000000000000000000000000000000000 *!
0-!
0.!
0/!
00!
01!
02!
b000000 3!
14!
05!
06!
b0000000000000000000000000000000000000000000000000000000000000000 7!
b0000000000000000000000000000000000000000000000000000000000000000 9!
b0000000000000000000000000000000000000000000000000000000000000000 ;!
1=!
0>!
0?!
b00000000000000000000000000000000000000000000000000000000000000000000000000 @!
b00000000000000000000000000001000 C!
b00000000000000000000000000000100 D!
b00000000000000000000000001000000 E!
#625
1#!
#1250
0#!
#1875
1#!
#2500
0#!
#3125
1#!
#3750
0#!
#4375
1#!
#5000
0#!
1$!
0%!
11!
#5625
1#!
#6250
0#!
#6875
1#!
#7500
0#!
#8125
1#!
#8750
0#!
#9375
1#!
#10000
0#!
0$!
1-!
10!
#10625
1#!
#11000
1)!
#11250
0#!
#11875
1#!
#12500
0#!
#13125
1#!
#13750
0#!
#14375
1#!
#15000
b00000000000000000000000000000001 l
0#!
1$!
1(!
b01010010100010000000000000000000000000000000000000000000101111101110111100 *!
b0000001010111110111011110000000110000000001001010100000000010010 9!
b0000001010111110111011110000000110000000001001010100000000010010 ;!
0=!
#15625
1#!
#16250
0#!
#16875
1#!
#17500
0#!
#18125
1#!
#18750
0#!
#19375
1#!
#20000
0#!
0$!
15!
#20625
b0000001010111110111011110000000110000000001001010100000000010010 N
b001 T
1#!
05!
16!
#21250
0#!
#21875
b0000001010111110111011110000000110000000001001010100000000010010 P
b010 T
1#!
06!
#22500
0#!
#23125
b0000001010111110111011110000000110000000001001010100000000010010 J
1L
b0000001010111110111011110000000110000000001001010100000000010010 R
b100 T
1#!
#23750
0#!
#24375
b0000001010111110111011110000000110000000001001010100000000010010 7
b001 G
0L
b000 T
1#!
#25000
b00000000000000000000000000000010 l
0#!
1$!
b00110010000000000000000000000000000000000000000000000000000100100011010000 *!
b0000000000010010001101000000000000000000001001000100000000010010 9!
b0000000000010010001101000000000000000000001001000100000000010010 ;!
#25625
b01 M
1#!
1/!
#26250
b000001 !!
0#!
0/!
#26875
1#!
1.!
1/!
b000001 3!
#27500
b1000000000000000000000000000000000000000000000000000000000000000 }
b000010 !!
0#!
0/!
#28125
1#!
0.!
1/!
b000010 3!
#28750
b0100000000000000000000000000000000000000000000000000000000000000 }
b000011 !!
0#!
0/!
#29375
1#!
1/!
b000011 3!
#30000
b0010000000000000000000000000000000000000000000000000000000000000 }
b000100 !!
0#!
0$!
0/!
15!
#30625
b0000000000010010001101000000000000000000001001000100000000010010 N
b001 T
1#!
1.!
1/!
b000100 3!
05!
16!
#31250
b1001000000000000000000000000000000000000000000000000000000000000 }
b000101 !!
0#!
0/!
#31875
b0000000000010010001101000000000000000000001001000100000000010010 P
b010 T
1#!
0.!
1/!
b000101 3!
06!
#32500
b0100100000000000000000000000000000000000000000000000000000000000 }
b000110 !!
0#!
0/!
#33125
b0000000000010010001101000000000000000000001001000100000000010010 J
1L
b0000000000010010001101000000000000000000001001000100000000010010 R
b100 T
1#!
1/!
b000110 3!
#33750
b0010010000000000000000000000000000000000000000000000000000000000 }
b000111 !!
0#!
0/!
#34375
b0000000000010010001101000000000000000000001001000100000000010010 9
b010 G
0L
b000 T
1#!
1/!
b000111 3!
#35000
b00000000000000000000000000000011 l
b0001001000000000000000000000000000000000000000000000000000000000 }
b001000 !!
0#!
1$!
b1010101010111011110011001101110100010001001000100011001101000100 &!
b00000000000000000011111111101000100100011010001010110000000000000000000000 *!
0/!
b0010000000010010001101000101011000000000011111111100000000000000 9!
b0010000000010010001101000101011000000000011111111100000000000000 ;!
1=!
#35625
1#!
1/!
b001000 3!
#36250
b0000100100000000000000000000000000000000000000000000000000000000 }
b001001 !!
0#!
0/!
#36875
1#!
1/!
b001001 3!
#37500
b0000010010000000000000000000000000000000000000000000000000000000 }
b001010 !!
0#!
0/!
#38125
1#!
1/!
b001010 3!
#38750
b0000001001000000000000000000000000000000000000000000000000000000 }
b001011 !!
0#!
0/!
#39375
1#!
1/!
b001011 3!
#40000
b0000000100100000000000000000000000000000000000000000000000000000 }
b001100 !!
0#!
0$!
0-!
0/!
15!
b1010101010111011110011001101110100010001001000100011001101000100 7!
1?!
#40625
b0010000000010010001101000101011000000000011111111100000000000000 N
b001 T
1#!
1/!
b001100 3!
05!
16!
#41250
b0000000010010000000000000000000000000000000000000000000000000000 }
b001101 !!
0#!
0/!
#41875
b0010000000010010001101000101011000000000011111111100000000000000 P
b010 T
1#!
1/!
b001101 3!
06!
#42500
b0000000001001000000000000000000000000000000000000000000000000000 }
b001110 !!
0#!
0/!
#43125
b0010000000010010001101000101011000000000011111111100000000000000 J
1L
b0010000000010010001101000101011000000000011111111100000000000000 R
b100 T
1#!
1.!
1/!
b001110 3!
#43750
b1000000000100100000000000000000000000000000000000000000000000000 }
b001111 !!
0#!
0/!
#44375
b0010000000010010001101000101011000000000011111111100000000000000 ;
b011 G
0L
b000 T
1#!
0.!
1/!
b001111 3!
#45000
1`
b0100000000010010000000000000000000000000000000000000000000000000 }
b010000 !!
0#!
1$!
0(!
0/!
b0000000000000000000000000000000000010001001000100011001101000100 9!
#45625
1#!
1.!
1/!
b010000 3!
#46250
b1010000000001001000000000000000000000000000000000000000000000000 }
b010001 !!
0#!
0/!
#46875
1#!
0.!
1/!
b010001 3!
#47500
b0101000000000100100000000000000000000000000000000000000000000000 }
b010010 !!
0#!
0/!
#48125
1#!
1.!
1/!
b010010 3!
#48750
b1010100000000010010000000000000000000000000000000000000000000000 }
b010011 !!
0#!
0/!
#49375
1#!
0.!
1/!
b010011 3!
#50000
b0101010000000001001000000000000000000000000000000000000000000000 }
b010100 !!
0#!
0$!
1-!
0/!
15!
0?!
#50625
b0000000000000000000000000000000000010001001000100011001101000100 N
b001 T
1#!
1/!
b010100 3!
05!
16!
#51250
b0010101000000000100100000000000000000000000000000000000000000000 }
b010101 !!
0#!
0/!
#51875
b0000000000000000000000000000000000010001001000100011001101000100 P
b010 T
1#!
1.!
1/!
b010101 3!
06!
#52500
b1001010100000000010010000000000000000000000000000000000000000000 }
b010110 !!
0#!
0/!
#53125
b0000000000000000000000000000000000010001001000100011001101000100 J
1L
b0000000000000000000000000000000000010001001000100011001101000100 R
b100 T
1#!
0.!
1/!
b010110 3!
#53750
b0100101010000000001001000000000000000000000000000000000000000000 }
b010111 !!
0#!
0/!
#54375
b0000000000000000000000000000000000010001001000100011001101000100 =
b100 G
0L
b000 T
1#!
1/!
b010111 3!
#55000
0`
b00000000000000000000000000000100 l
b0010010101000000000100100000000000000000000000000000000000000000 }
b011000 !!
0#!
1$!
b1100101011111110101110101011111011011110101011011011111011101111 &!
1(!
b00001001001001001110000111100011001010100001100100001000000000000000000000 *!
0/!
b0000000101100101010000110010000100100001110000111100000000001001 9!
b0000000101100101010000110010000100100001110000111100000000001001 ;!
0=!
1>!
#55625
1#!
1/!
b011000 3!
#56250
b0001001010100000000010010000000000000000000000000000000000000000 }
b011001 !!
0#!
0/!
#56875
1#!
1/!
b011001 3!
#57500
b0000100101010000000001001000000000000000000000000000000000000000 }
b011010 !!
0#!
0/!
#58125
1#!
1/!
b011010 3!
#58750
b0000010010101000000000100100000000000000000000000000000000000000 }
b011011 !!
0#!
0/!
#59375
1#!
1/!
b011011 3!
#60000
b0000001001010100000000010010000000000000000000000000000000000000 }
b011100 !!
0#!
0$!
0-!
0/!
15!
b1100101011111110101110101011111011011110101011011011111011101111 7!
1?!
#60625
b0000000101100101010000110010000100100001110000111100000000001001 N
b001 T
1#!
1/!
b011100 3!
05!
16!
#61250
b0000000100101010000000001001000000000000000000000000000000000000 }
b011101 !!
0#!
0/!
#61875
b0000000101100101010000110010000100100001110000111100000000001001 P
b010 T
1#!
1/!
b011101 3!
06!
#62500
b0000000010010101000000000100100000000000000000000000000000000000 }
b011110 !!
0#!
0/!
#63125
b0000000101100101010000110010000100100001110000111100000000001001 J
1L
b0000000101100101010000110010000100100001110000111100000000001001 R
b100 T
1#!
1/!
b011110 3!
#63750
b0000000001001010100000000010010000000000000000000000000000000000 }
b011111 !!
0#!
0/!
#64375
b0000000101100101010000110010000100100001110000111100000000001001 ?
b101 G
0L
b000 T
1#!
1.!
1/!
b011111 3!
#65000
1a
b1000000000100101010000000001001000000000000000000000000000000000 }
b100000 !!
0#!
1$!
0(!
0/!
b1100101011111110101110101011111011011110101011011011111011101111 9!
#65625
1#!
1/!
b100000 3!
#66250
b1100000000010010101000000000100100000000000000000000000000000000 }
b100001 !!
0#!
0/!
#66875
1#!
0.!
1/!
b100001 3!
#67500
b0110000000001001010100000000010010000000000000000000000000000000 }
b100010 !!
0#!
0/!
#68125
1#!
1/!
b100010 3!
#68750
b0011000000000100101010000000001001000000000000000000000000000000 }
b100011 !!
0#!
0/!
#69375
1#!
1/!
b100011 3!
#70000
b0001100000000010010101000000000100100000000000000000000000000000 }
b100100 !!
0#!
0$!
1-!
0/!
15!
0?!
#70625
b1100101011111110101110101011111011011110101011011011111011101111 N
b001 T
1#!
1/!
b100100 3!
05!
16!
#71250
b0000110000000001001010100000000010010000000000000000000000000000 }
b100101 !!
0#!
0/!
#71875
b1100101011111110101110101011111011011110101011011011111011101111 P
b010 T
1#!
1/!
b100101 3!
06!
#72500
b0000011000000000100101010000000001001000000000000000000000000000 }
b100110 !!
0#!
0/!
#73125
b1100101011111110101110101011111011011110101011011011111011101111 J
1L
b1100101011111110101110101011111011011110101011011011111011101111 R
b100 T
1#!
1/!
b100110 3!
#73750
b0000001100000000010010101000000000100100000000000000000000000000 }
b100111 !!
0#!
0/!
#74375
b1100101011111110101110101011111011011110101011011011111011101111 A
b110 G
0L
b000 T
1#!
1/!
b100111 3!
#75000
0a
b0000000110000000001001010100000000010010000000000000000000000000 }
b101000 !!
0#!
1$!
0/!
b0000000101100101010000110010000100100001110000111100000000001001 9!
#75625
1#!
1.!
1/!
b101000 3!
#76250
b1000000011000000000100101010000000001001000000000000000000000000 }
b101001 !!
0#!
0/!
#76875
1#!
1/!
b101001 3!
#77500
b1100000001100000000010010101000000000100100000000000000000000000 }
b101010 !!
0#!
0/!
#78125
1#!
1/!
b101010 3!
#78750
b1110000000110000000001001010100000000010010000000000000000000000 }
b101011 !!
0#!
0/!
#79375
1#!
1/!
b101011 3!
#80000
b1111000000011000000000100101010000000001001000000000000000000000 }
b101100 !!
0#!
0$!
0/!
#80625
1#!
0.!
1/!
b101100 3!
#81250
b0111100000001100000000010010101000000000100100000000000000000000 }
b101101 !!
0#!
0/!
#81875
1#!
1.!
1/!
b101101 3!
#82500
b1011110000000110000000001001010100000000010010000000000000000000 }
b101110 !!
0#!
0/!
#83125
1#!
1/!
b101110 3!
#83750
b1101111000000011000000000100101010000000001001000000000000000000 }
b101111 !!
0#!
0/!
#84375
1#!
1/!
b101111 3!
#85000
b1110111100000001100000000010010101000000000100100000000000000000 }
b110000 !!
0#!
1$!
0/!
#85625
1#!
0.!
1/!
b110000 3!
#86250
b0111011110000000110000000001001010100000000010010000000000000000 }
b110001 !!
0#!
0/!
#86875
1#!
1.!
1/!
b110001 3!
#87500
b1011101111000000011000000000100101010000000001001000000000000000 }
b110010 !!
0#!
0/!
#88125
1#!
1/!
b110010 3!
#88750
b1101110111100000001100000000010010101000000000100100000000000000 }
b110011 !!
0#!
0/!
#89375
1#!
1/!
b110011 3!
#90000
b1110111011110000000110000000001001010100000000010010000000000000 }
b110100 !!
0#!
0$!
0/!
#90625
1#!
1/!
b110100 3!
#91250
b1111011101111000000011000000000100101010000000001001000000000000 }
b110101 !!
0#!
0/!
#91875
1#!
1/!
b110101 3!
#92500
b1111101110111100000001100000000010010101000000000100100000000000 }
b110110 !!
0#!
0/!
#93125
1#!
0.!
1/!
b110110 3!
#93750
b0111110111011110000000110000000001001010100000000010010000000000 }
b110111 !!
0#!
0/!
#94375
1#!
1.!
1/!
b110111 3!
#95000
b1011111011101111000000011000000000100101010000000001001000000000 }
b111000 !!
0#!
1$!
0/!
#95625
1#!
0.!
1/!
b111000 3!
#96250
b0101111101110111100000001100000000010010101000000000100100000000 }
b111001 !!
0#!
0/!
#96875
1#!
1.!
1/!
b111001 3!
#97500
b1010111110111011110000000110000000001001010100000000010010000000 }
b111010 !!
0#!
0/!
#98125
1#!
0.!
1/!
b111010 3!
#98750
b0101011111011101111000000011000000000100101010000000001001000000 }
b111011 !!
0#!
0/!
#99375
1#!
1/!
b111011 3!
#100000
b0010101111101110111100000001100000000010010101000000000100100000 }
b111100 !!
0#!
0$!
0/!
#100625
1#!
1/!
b111100 3!
#101250
b0001010111110111011110000000110000000001001010100000000010010000 }
b111101 !!
0#!
0/!
#101875
1#!
1/!
b111101 3!
#102500
b0000101011111011101111000000011000000000100101010000000001001000 }
b111110 !!
0#!
0/!
#103125
1#!
1/!
b111110 3!
#103750
b0000010101111101110111100000001100000000010010101000000000100100 }
b111111 !!
0#!
0/!
#104375
1#!
1/!
b111111 3!
#105000
b0000001010111110111011110000000110000000001001010100000000010010 }
b000000 !!
1"!
0#!
1$!
0/!
12!
04!
#105625
b001 H
b10 M
1#!
b000000 3!
#106250
0#!
14!
#106875
b00001 I
1#!
#107500
0#!
#108125
b00010 I
1#!
#108750
0#!
#109375
b00011 I
1#!
#110000
0#!
0$!
#110625
b00100 I
1#!
#111250
0#!
#111875
b00101 I
1#!
#112500
0#!
#113125
b00110 I
1#!
#113750
0#!
#114375
b00111 I
1#!
#115000
1m
b0000001010111110111011110000000110000000001001010100000000010010 q
b001 w
0#!
1$!
02!
#115625
b01000 I
1#!
#116250
0#!
#116875
b01001 I
1#!
#117500
0#!
#118125
b01010 I
1#!
#118750
0#!
#119375
b01011 I
1#!
#120000
0#!
0$!
#120625
b01100 I
1#!
#121250
0#!
#121875
b01101 I
1#!
#122500
0#!
#123125
b01110 I
1#!
#123750
0#!
#124375
b01111 I
1#!
#125000
0m
b0000001010111110111011110000000110000000001001010100000000010010 s
b010 w
0#!
1$!
#125625
b10000 I
1#!
#126250
0#!
#126875
b10001 I
1#!
#127500
0#!
#128125
b10010 I
1#!
#128750
0#!
#129375
b10011 I
1#!
#130000
0#!
0$!
#130625
b10100 I
1#!
#131250
0#!
#131875
b10101 I
1#!
#132500
0#!
#133125
b10110 I
1#!
#133750
0#!
#134375
b10111 I
1#!
#135000
b0000001010111110111011110000000110000000001001010100000000010010 n
1p
b0000001010111110111011110000000110000000001001010100000000010010 u
b100 w
0#!
1$!
#135625
b11000 I
1#!
#136250
0#!
#136875
b11001 I
1#!
#137500
0#!
#138125
b11010 I
1#!
#138750
0#!
#139375
b11011 I
1#!
#140000
0#!
0$!
#140625
b11100 I
1#!
#141250
0#!
#141875
b11101 I
1#!
#142500
0#!
#143125
b11110 I
1#!
#143750
0#!
#144375
b11111 I
1#!
#145000
b0000001010111110111011110000000110000000001001010100000000010010 b
b01 j
0p
b000 w
0x
b01010010100010000000000000000000000000000000000000000000101111101110111100 z
0#!
1$!
#145625
b00000 I
b01 M
1#!
1/!
#146250
b0000000101011111011101111000000011000000000100101010000000001001 }
b000001 !!
0"!
0#!
0/!
#146875
1#!
1.!
1/!
b000001 3!
#147500
b1000000010101111101110111100000001100000000010010101000000000100 }
b000010 !!
0#!
0/!
#148125
1#!
0.!
1/!
b000010 3!
#148750
b0100000001010111110111011110000000110000000001001010100000000010 }
b000011 !!
0#!
0/!
#149375
1#!
1/!
b000011 3!
#150000
b0010000000101011111011101111000000011000000000100101010000000001 }
b000100 !!
0#!
0$!
0/!
#150625
1#!
1.!
1/!
b000100 3!
#151250
b1001000000010101111101110111100000001100000000010010101000000000 }
b000101 !!
0#!
0/!
#151875
1#!
0.!
1/!
b000101 3!
#152500
b0100100000001010111110111011110000000110000000001001010100000000 }
b000110 !!
0#!
0/!
#153125
1#!
1/!
b000110 3!
#153750
b0010010000000101011111011101111000000011000000000100101010000000 }
b000111 !!
0#!
0/!
#154375
1#!
1/!
b000111 3!
#155000
b01010010100010000000000000000000000000000000000000000000101111101110111100 X
1[
b01 ]
1x
b00000000000000000000000000000000000000000000000000000000000000000000000000 z
b0001001000000010101111101110111100000001100000000010010101000000 }
b001000 !!
0#!
1$!
0/!
#155625
1#!
1/!
b001000 3!
#156250
b0000100100000001010111110111011110000000110000000001001010100000 }
b001001 !!
0#!
0/!
#156875
1#!
1/!
b001001 3!
#157500
b0000010010000000101011111011101111000000011000000000100101010000 }
b001010 !!
0#!
0/!
#158125
1#!
1/!
b001010 3!
#158750
b0000001001000000010101111101110111100000001100000000010010101000 }
b001011 !!
0#!
0/!
#159375
1#!
1/!
b001011 3!
#160000
b0000000100100000001010111110111011110000000110000000001001010100 }
b001100 !!
0#!
0$!
0/!
#160625
1#!
1/!
b001100 3!
#161250
b0000000010010000000101011111011101111000000011000000000100101010 }
b001101 !!
0#!
0/!
#161875
1#!
1/!
b001101 3!
#162500
b0000000001001000000010101111101110111100000001100000000010010101 }
b001110 !!
0#!
0/!
#163125
1#!
1.!
1/!
b001110 3!
#163750
b1000000000100100000001010111110111011110000000110000000001001010 }
b001111 !!
0#!
0/!
#164375
1#!
0.!
1/!
b001111 3!
#165000
0[
b00000000000000000000000000000001 \
b0100000000010010000000101011111011101111000000011000000000100101 }
b010000 !!
0#!
1$!
0/!
01!
#165625
1#!
1/!
b010000 3!
#166250
b0010000000001001000000010101111101110111100000001100000000010010 }
b010001 !!
0#!
0/!
#166875
1#!
1/!
b010001 3!
#167500
b0001000000000100100000001010111110111011110000000110000000001001 }
b010010 !!
0#!
0/!
#168125
1#!
1.!
1/!
b010010 3!
#168750
b1000100000000010010000000101011111011101111000000011000000000100 }
b010011 !!
0#!
0/!
#169375
1#!
0.!
1/!
b010011 3!
#170000
b0100010000000001001000000010101111101110111100000001100000000010 }
b010100 !!
0#!
0$!
0/!
#170625
1#!
1/!
b010100 3!
#171250
b0010001000000000100100000001010111110111011110000000110000000001 }
b010101 !!
0#!
0/!
#171875
1#!
1.!
1/!
b010101 3!
#172500
b1001000100000000010010000000101011111011101111000000011000000000 }
b010110 !!
0#!
0/!
#173125
1#!
0.!
1/!
b010110 3!
#173750
b0100100010000000001001000000010101111101110111100000001100000000 }
b010111 !!
0#!
0/!
#174375
1#!
1/!
b010111 3!
#175000
b0010010001000000000100100000001010111110111011110000000110000000 }
b011000 !!
0#!
1$!
0/!
11!
#175625
1#!
1/!
b011000 3!
#176250
b0001001000100000000010010000000101011111011101111000000011000000 }
b011001 !!
0#!
0/!
#176875
1#!
1/!
b011001 3!
#177500
b0000100100010000000001001000000010101111101110111100000001100000 }
b011010 !!
0#!
0/!
#178125
1#!
1/!
b011010 3!
#178750
b0000010010001000000000100100000001010111110111011110000000110000 }
b011011 !!
0#!
0/!
#179375
1#!
1/!
b011011 3!
#180000
b0000001001000100000000010010000000101011111011101111000000011000 }
b011100 !!
0#!
0$!
0/!
#180625
1#!
1/!
b011100 3!
#181250
b0000000100100010000000001001000000010101111101110111100000001100 }
b011101 !!
0#!
0/!
#181875
1#!
1/!
b011101 3!
#182500
b0000000010010001000000000100100000001010111110111011110000000110 }
b011110 !!
0#!
0/!
#183125
1#!
1/!
b011110 3!
#183750
b0000000001001000100000000010010000000101011111011101111000000011 }
b011111 !!
0#!
0/!
#184375
1#!
1/!
b011111 3!
#185000
b0000000000100100010000000001001000000010101111101110111100000001 }
b100000 !!
0#!
1$!
0/!
#185625
1#!
1/!
b100000 3!
#186250
b0000000000010010001000000000100100000001010111110111011110000000 }
b100001 !!
0#!
0/!
#186875
1#!
1/!
b100001 3!
#187500
b0000000000001001000100000000010010000000101011111011101111000000 }
b100010 !!
0#!
0/!
#188125
1#!
1/!
b100010 3!
#188750
b0000000000000100100010000000001001000000010101111101110111100000 }
b100011 !!
0#!
0/!
#189375
1#!
1/!
b100011 3!
#190000
b0000000000000010010001000000000100100000001010111110111011110000 }
b100100 !!
0#!
0$!
0/!
#190625
1#!
1/!
b100100 3!
#191250
b0000000000000001001000100000000010010000000101011111011101111000 }
b100101 !!
0#!
0/!
#191875
1#!
1/!
b100101 3!
#192500
b0000000000000000100100010000000001001000000010101111101110111100 }
b100110 !!
0#!
0/!
#193125
1#!
1/!
b100110 3!
#193750
b0000000000000000010010001000000000100100000001010111110111011110 }
b100111 !!
0#!
0/!
#194375
1#!
1/!
b100111 3!
#195000
b0000000000000000001001000100000000010010000000101011111011101111 }
b101000 !!
0#!
1$!
0/!
#195625
1#!
1/!
b101000 3!
#196250
b0000000000000000000100100010000000001001000000010101111101110111 }
b101001 !!
0#!
0/!
#196875
1#!
1/!
b101001 3!
#197500
b0000000000000000000010010001000000000100100000001010111110111011 }
b101010 !!
0#!
0/!
#198125
1#!
1.!
1/!
b101010 3!
#198750
b1000000000000000000001001000100000000010010000000101011111011101 }
b101011 !!
0#!
0/!
#199375
1#!
0.!
1/!
b101011 3!
#200000
b0100000000000000000000100100010000000001001000000010101111101110 }
b101100 !!
0#!
0$!
0/!
#200625
1#!
1.!
1/!
b101100 3!
#201250
b1010000000000000000000010010001000000000100100000001010111110111 }
b101101 !!
0#!
0/!
#201875
1#!
1/!
b101101 3!
#202500
b1101000000000000000000001001000100000000010010000000101011111011 }
b101110 !!
0#!
0/!
#203125
1#!
0.!
1/!
b101110 3!
#203750
b0110100000000000000000000100100010000000001001000000010101111101 }
b101111 !!
0#!
0/!
#204375
1#!
1/!
b101111 3!
#205000
b0011010000000000000000000010010001000000000100100000001010111110 }
b110000 !!
0#!
1$!
0/!
#205625
1#!
1/!
b110000 3!
#206250
b0001101000000000000000000001001000100000000010010000000101011111 }
b110001 !!
0#!
0/!
#206875
1#!
1.!
1/!
b110001 3!
#207500
b1000110100000000000000000000100100010000000001001000000010101111 }
b110010 !!
0#!
0/!
#208125
1#!
0.!
1/!
b110010 3!
#208750
b0100011010000000000000000000010010001000000000100100000001010111 }
b110011 !!
0#!
0/!
#209375
1#!
1/!
b110011 3!
#210000
b0010001101000000000000000000001001000100000000010010000000101011 }
b110100 !!
0#!
0$!
0/!
