tb/Sim_results/SBcodex_tb.vcd
$version Generated by VerilatedVcd $end
$timescale 1ps $end
 $scope module TOP $end
  $scope module $unit $end
   $var wire 74 ;! reset_SB_msg__Vstatic__msg [73:0] $end
  $upscope $end
  $scope module SB_tb $end
   $var wire 32 >! fast_buffer_size [31:0] $end
   $var wire 32 ?! slow_buffer_size [31:0] $end
   $var wire 1 | clk_800MHz $end
   $var wire 1 } clk_100MHz $end
   $var wire 1 ~ reset $end
   $var wire 64 !! dataBus_i [63:0] $end
   $var wire 1 #! valid_i $end
   $var wire 1 $! enable_tx $end
   $var wire 74 %! SB_msg_i [73:0] $end
   $var wire 1 (! send_next_flag_o $end
   $var wire 1 )! dataPin_o $end
   $var wire 1 *! clkPin_o $end
   $var wire 64 Q data_o [63:0] $end
   $var wire 74 S SB_msg_o [73:0] $end
   $var wire 1 V valid_o $end
   $var wire 1 +! enable_rx $end
   $var wire 1 ,! msg_req $end
   $var wire 1 )! dataPin_conn $end
   $var wire 1 *! clkPin_conn $end
   $var wire 74 # test_msgs[0] [73:0] $end
   $var wire 74 & test_msgs[1] [73:0] $end
   $var wire 74 ) test_msgs[2] [73:0] $end
   $var wire 64 , test_data[0] [63:0] $end
   $var wire 64 . test_data[1] [63:0] $end
   $var wire 64 0 test_data[2] [63:0] $end
   $var wire 32 g send_index [31:0] $end
   $var wire 32 W recieve_index [31:0] $end
   $scope module rx_inst $end
    $var wire 32 ?! slow_buffer_size [31:0] $end
    $var wire 1 | clk_800MHz $end
    $var wire 1 } clk_100MHz $end
    $var wire 1 ~ reset $end
    $var wire 1 +! enable_i $end
    $var wire 1 ,! msg_req_i $end
    $var wire 1 )! dataPin_i $end
    $var wire 1 *! clkPin_i $end
    $var wire 64 Q data_o [63:0] $end
    $var wire 74 S SB_msg_o [73:0] $end
    $var wire 1 V valid_o $end
    $var wire 64 ] buffer[0] [63:0] $end
    $var wire 64 _ buffer[1] [63:0] $end
    $var wire 64 a buffer[2] [63:0] $end
    $var wire 64 c buffer[3] [63:0] $end
    $var wire 2 e write_index [1:0] $end
    $var wire 2 X read_index [1:0] $end
    $var wire 64 x shift_reg [63:0] $end
    $var wire 6 z bit_cnt [5:0] $end
    $var wire 1 -! msg_recieved $end
    $var wire 1 { msg_valid $end
    $var wire 1 h msg_recieved_ack $end
    $var wire 64 i data_sync_w [63:0] $end
    $var wire 1 k valid_w $end
    $var wire 1 Y expect_32b_data_r $end
    $var wire 1 Z expect_64b_data_r $end
    $var wire 1 s expect_32b_data_w $end
    $var wire 1 t expect_64b_data_w $end
    $var wire 74 u decoded_SB_msg [73:0] $end
    $scope module shiftreg_inst $end
     $var wire 32 @! DATA_BIT_WIDTH [31:0] $end
     $var wire 1 } clk $end
     $var wire 1 ~ reset $end
     $var wire 1 -! enable $end
     $var wire 1 h enable_ack $end
     $var wire 1 k valid_o $end
     $var wire 64 x d_i [63:0] $end
     $var wire 64 i q_o [63:0] $end
     $var wire 64 l sync_r[0] [63:0] $end
     $var wire 64 n sync_r[1] [63:0] $end
     $var wire 64 p sync_r[2] [63:0] $end
     $var wire 1 h enable_ack_r $end
     $var wire 3 r valid_r [2:0] $end
    $upscope $end
    $scope module unnamedblk1 $end
     $var wire 32 f i [31:0] $end
    $upscope $end
   $upscope $end
   $scope module tx_inst $end
    $var wire 32 >! fast_buffer_size [31:0] $end
    $var wire 1 } clk_100MHz $end
    $var wire 1 | clk_800MHz $end
    $var wire 1 ~ reset $end
    $var wire 64 !! dataBus_i [63:0] $end
    $var wire 74 %! SB_msg_i [73:0] $end
    $var wire 1 #! valid_i $end
    $var wire 1 $! enable_i $end
    $var wire 1 (! send_next_flag_o $end
    $var wire 1 )! dataPin_o $end
    $var wire 1 *! clkPin_o $end
    $var wire 64 2 buffer[0] [63:0] $end
    $var wire 64 4 buffer[1] [63:0] $end
    $var wire 64 6 buffer[2] [63:0] $end
    $var wire 64 8 buffer[3] [63:0] $end
    $var wire 64 : buffer[4] [63:0] $end
    $var wire 64 < buffer[5] [63:0] $end
    $var wire 64 > buffer[6] [63:0] $end
    $var wire 64 @ buffer[7] [63:0] $end
    $var wire 3 B write_index [2:0] $end
    $var wire 3 C read_index [2:0] $end
    $var wire 5 D ctr_32 [4:0] $end
    $var wire 6 .! ctr_64 [5:0] $end
    $var wire 1 /! clk_active_r $end
    $var wire 64 E data_w [63:0] $end
    $var wire 1 G valid_w $end
    $var wire 1 *! clkPin_w $end
    $var wire 1 0! valid_ShiftReg_flag $end
    $var wire 1 1! data_valid_ack_o $end
    $var wire 64 2! Stored_data_r [63:0] $end
    $var wire 64 4! ShiftReg_data_w [63:0] $end
    $var wire 64 6! encoded_msg_w [63:0] $end
    $var wire 1 8! expect_32b_data_w $end
    $var wire 1 9! expect_64b_data_w $end
    $var wire 1 [ expect_32b_data_r $end
    $var wire 1 \ expect_64b_data_r $end
    $var wire 1 :! delay1 $end
    $var wire 2 H state [1:0] $end
    $scope module shiftreg_inst $end
     $var wire 32 @! DATA_BIT_WIDTH [31:0] $end
     $var wire 1 | clk $end
     $var wire 1 ~ reset $end
     $var wire 1 0! enable $end
     $var wire 1 1! enable_ack $end
     $var wire 1 G valid_o $end
     $var wire 64 4! d_i [63:0] $end
     $var wire 64 E q_o [63:0] $end
     $var wire 64 I sync_r[0] [63:0] $end
     $var wire 64 K sync_r[1] [63:0] $end
     $var wire 64 M sync_r[2] [63:0] $end
     $var wire 1 1! enable_ack_r $end
     $var wire 3 O valid_r [2:0] $end
    $upscope $end
    $scope module unnamedblk1 $end
     $var wire 32 P i [31:0] $end
    $upscope $end
   $upscope $end
  $upscope $end
 $upscope $end
$enddefinitions $end


#0
b01010010100010000000000000000000000000000000000000000000101111101110111100 #
b00000000000000000011111111101000100100011010001010110000000000000000000000 &
b00001001001001001110000111100011001010100001100100001000000000000000000000 )
b0000000000000000000000000000000000000000000000000000000000000000 ,
b1010101010111011110011001101110100010001001000100011001101000100 .
b1100101011111110101110101011111011011110101011011011111011101111 0
b0000000000000000000000000000000000000000000000000000000000000000 2
b0000000000000000000000000000000000000000000000000000000000000000 4
b0000000000000000000000000000000000000000000000000000000000000000 6
b0000000000000000000000000000000000000000000000000000000000000000 8
b0000000000000000000000000000000000000000000000000000000000000000 :
b0000000000000000000000000000000000000000000000000000000000000000 <
b0000000000000000000000000000000000000000000000000000000000000000 >
b0000000000000000000000000000000000000000000000000000000000000000 @
b000 B
b000 C
b00000 D
b0000000000000000000000000000000000000000000000000000000000000000 E
0G
b00 H
b0000000000000000000000000000000000000000000000000000000000000000 I
b0000000000000000000000000000000000000000000000000000000000000000 K
b0000000000000000000000000000000000000000000000000000000000000000 M
b000 O
b00000000000000000000000000001000 P
b0000000000000000000000000000000000000000000000000000000000000000 Q
b00000000000000000000000000000000000000000000000000000000000000000000000000 S
0V
b00000000000000000000000000000000 W
b00 X
0Y
0Z
0[
0\
b0000000000000000000000000000000000000000000000000000000000000000 ]
b0000000000000000000000000000000000000000000000000000000000000000 _
b0000000000000000000000000000000000000000000000000000000000000000 a
b0000000000000000000000000000000000000000000000000000000000000000 c
b00 e
b00000000000000000000000000000000 f
b00000000000000000000000000000000 g
0h
b0000000000000000000000000000000000000000000000000000000000000000 i
0k
b0000000000000000000000000000000000000000000000000000000000000000 l
b0000000000000000000000000000000000000000000000000000000000000000 n
b0000000000000000000000000000000000000000000000000000000000000000 p
b000 r
1s
0t
b00000000000000000000000000000000000000000000000000000000000000000000000000 u
b0000000000000000000000000000000000000000000000000000000000000000 x
b000000 z
0{
0|
0}
1~
b0000000000000000000000000000000000000000000000000000000000000000 !!
0#!
0$!
b00000000000000000000000000000000000000000000000000000000000000000000000000 %!
0(!
0)!
0*!
0+!
0,!
0-!
b000000 .!
1/!
00!
01!
b0000000000000000000000000000000000000000000000000000000000000000 2!
b0000000000000000000000000000000000000000000000000000000000000000 4!
b0000000000000000000000000000000000000000000000000000000000000000 6!
18!
09!
0:!
b00000000000000000000000000000000000000000000000000000000000000000000000000 ;!
b00000000000000000000000000001000 >!
b00000000000000000000000000000100 ?!
b00000000000000000000000001000000 @!
#625
1|
#1250
0|
#1875
1|
#2500
0|
#3125
1|
#3750
0|
#4375
1|
#5000
0|
1}
0~
1,!
#5625
1|
#6250
0|
#6875
1|
#7500
0|
#8125
1|
#8750
0|
#9375
1|
#10000
0|
0}
1(!
1+!
#10625
1|
#11000
1$!
#11250
0|
#11875
1|
#12500
0|
#13125
1|
#13750
0|
#14375
1|
#15000
b00000000000000000000000000000001 g
0|
1}
1#!
b01010010100010000000000000000000000000000000000000000000101111101110111100 %!
b0000001010111110111011110000000110000000001001010100000000010010 4!
b0000001010111110111011110000000110000000001001010100000000010010 6!
08!
#15625
1|
#16250
0|
#16875
1|
#17500
0|
#18125
1|
#18750
0|
#19375
1|
#20000
0|
0}
10!
#20625
b0000001010111110111011110000000110000000001001010100000000010010 I
b001 O
1|
00!
11!
#21250
0|
#21875
b0000001010111110111011110000000110000000001001010100000000010010 K
b010 O
1|
01!
#22500
0|
#23125
b0000001010111110111011110000000110000000001001010100000000010010 E
1G
b0000001010111110111011110000000110000000001001010100000000010010 M
b100 O
1|
#23750
0|
#24375
b0000001010111110111011110000000110000000001001010100000000010010 2
b001 B
0G
b000 O
1|
#25000
b00000000000000000000000000000010 g
0|
1}
b1010101010111011110011001101110100010001001000100011001101000100 !!
b00000000000000000011111111101000100100011010001010110000000000000000000000 %!
b0010000000010010001101000101011000000000011111111100000000000000 4!
b0010000000010010001101000101011000000000011111111100000000000000 6!
18!
#25625
b01 H
1|
1*!
#26250
b000001 z
0|
0*!
#26875
1|
1)!
1*!
b000001 .!
#27500
b1000000000000000000000000000000000000000000000000000000000000000 x
b000010 z
0|
0*!
#28125
1|
0)!
1*!
b000010 .!
#28750
b0100000000000000000000000000000000000000000000000000000000000000 x
b000011 z
0|
0*!
#29375
1|
1*!
b000011 .!
#30000
b0010000000000000000000000000000000000000000000000000000000000000 x
b000100 z
0|
0}
0(!
0*!
10!
b1010101010111011110011001101110100010001001000100011001101000100 2!
1:!
#30625
b0010000000010010001101000101011000000000011111111100000000000000 I
b001 O
1|
1)!
1*!
b000100 .!
00!
11!
#31250
b1001000000000000000000000000000000000000000000000000000000000000 x
b000101 z
0|
0*!
#31875
b0010000000010010001101000101011000000000011111111100000000000000 K
b010 O
1|
0)!
1*!
b000101 .!
01!
#32500
b0100100000000000000000000000000000000000000000000000000000000000 x
b000110 z
0|
0*!
#33125
b0010000000010010001101000101011000000000011111111100000000000000 E
1G
b0010000000010010001101000101011000000000011111111100000000000000 M
b100 O
1|
1*!
b000110 .!
#33750
b0010010000000000000000000000000000000000000000000000000000000000 x
b000111 z
0|
0*!
#34375
b0010000000010010001101000101011000000000011111111100000000000000 4
b010 B
0G
b000 O
1|
1*!
b000111 .!
#35000
1[
b0001001000000000000000000000000000000000000000000000000000000000 x
b001000 z
0|
1}
0#!
0*!
b0000000000000000000000000000000000010001001000100011001101000100 4!
#35625
1|
1*!
b001000 .!
#36250
b0000100100000000000000000000000000000000000000000000000000000000 x
b001001 z
0|
0*!
#36875
1|
1*!
b001001 .!
#37500
b0000010010000000000000000000000000000000000000000000000000000000 x
b001010 z
0|
0*!
#38125
1|
1*!
b001010 .!
#38750
b0000001001000000000000000000000000000000000000000000000000000000 x
b001011 z
0|
0*!
#39375
1|
1*!
b001011 .!
#40000
b0000000100100000000000000000000000000000000000000000000000000000 x
b001100 z
0|
0}
1(!
0*!
10!
0:!
#40625
b0000000000000000000000000000000000010001001000100011001101000100 I
b001 O
1|
1*!
b001100 .!
00!
11!
#41250
b0000000010010000000000000000000000000000000000000000000000000000 x
b001101 z
0|
0*!
#41875
b0000000000000000000000000000000000010001001000100011001101000100 K
b010 O
1|
1*!
b001101 .!
01!
#42500
b0000000001001000000000000000000000000000000000000000000000000000 x
b001110 z
0|
0*!
#43125
b0000000000000000000000000000000000010001001000100011001101000100 E
1G
b0000000000000000000000000000000000010001001000100011001101000100 M
b100 O
1|
1)!
1*!
b001110 .!
#43750
b1000000000100100000000000000000000000000000000000000000000000000 x
b001111 z
0|
0*!
#44375
b0000000000000000000000000000000000010001001000100011001101000100 6
b011 B
0G
b000 O
1|
0)!
1*!
b001111 .!
#45000
0[
b00000000000000000000000000000011 g
b0100000000010010000000000000000000000000000000000000000000000000 x
b010000 z
0|
1}
b1100101011111110101110101011111011011110101011011011111011101111 !!
1#!
b00001001001001001110000111100011001010100001100100001000000000000000000000 %!
0*!
b0000000101100101010000110010000100100001110000111100000000001001 4!
b0000000101100101010000110010000100100001110000111100000000001001 6!
08!
19!
#45625
1|
1)!
1*!
b010000 .!
#46250
b1010000000001001000000000000000000000000000000000000000000000000 x
b010001 z
0|
0*!
#46875
1|
0)!
1*!
b010001 .!
#47500
b0101000000000100100000000000000000000000000000000000000000000000 x
b010010 z
0|
0*!
#48125
1|
1)!
1*!
b010010 .!
#48750
b1010100000000010010000000000000000000000000000000000000000000000 x
b010011 z
0|
0*!
#49375
1|
0)!
1*!
b010011 .!
#50000
b0101010000000001001000000000000000000000000000000000000000000000 x
b010100 z
0|
0}
0(!
0*!
10!
b1100101011111110101110101011111011011110101011011011111011101111 2!
1:!
#50625
b0000000101100101010000110010000100100001110000111100000000001001 I
b001 O
1|
1*!
b010100 .!
00!
11!
#51250
b0010101000000000100100000000000000000000000000000000000000000000 x
b010101 z
0|
0*!
#51875
b0000000101100101010000110010000100100001110000111100000000001001 K
b010 O
1|
1)!
1*!
b010101 .!
01!
#52500
b1001010100000000010010000000000000000000000000000000000000000000 x
b010110 z
0|
0*!
#53125
b0000000101100101010000110010000100100001110000111100000000001001 E
1G
b0000000101100101010000110010000100100001110000111100000000001001 M
b100 O
1|
0)!
1*!
b010110 .!
#53750
b0100101010000000001001000000000000000000000000000000000000000000 x
b010111 z
0|
0*!
#54375
b0000000101100101010000110010000100100001110000111100000000001001 8
b100 B
0G
b000 O
1|
1*!
b010111 .!
#55000
1\
b0010010101000000000100100000000000000000000000000000000000000000 x
b011000 z
0|
1}
0#!
0*!
b1100101011111110101110101011111011011110101011011011111011101111 4!
#55625
1|
1*!
b011000 .!
#56250
b0001001010100000000010010000000000000000000000000000000000000000 x
b011001 z
0|
0*!
#56875
1|
1*!
b011001 .!
#57500
b0000100101010000000001001000000000000000000000000000000000000000 x
b011010 z
0|
0*!
#58125
1|
1*!
b011010 .!
#58750
b0000010010101000000000100100000000000000000000000000000000000000 x
b011011 z
0|
0*!
#59375
1|
1*!
b011011 .!
#60000
b0000001001010100000000010010000000000000000000000000000000000000 x
b011100 z
0|
0}
1(!
0*!
10!
0:!
#60625
b1100101011111110101110101011111011011110101011011011111011101111 I
b001 O
1|
1*!
b011100 .!
00!
11!
#61250
b0000000100101010000000001001000000000000000000000000000000000000 x
b011101 z
0|
0*!
#61875
b1100101011111110101110101011111011011110101011011011111011101111 K
b010 O
1|
1*!
b011101 .!
01!
#62500
b0000000010010101000000000100100000000000000000000000000000000000 x
b011110 z
0|
0*!
#63125
b1100101011111110101110101011111011011110101011011011111011101111 E
1G
b1100101011111110101110101011111011011110101011011011111011101111 M
b100 O
1|
1*!
b011110 .!
#63750
b0000000001001010100000000010010000000000000000000000000000000000 x
b011111 z
0|
0*!
#64375
b1100101011111110101110101011111011011110101011011011111011101111 :
b101 B
0G
b000 O
1|
1)!
1*!
b011111 .!
#65000
0\
b1000000000100101010000000001001000000000000000000000000000000000 x
b100000 z
0|
1}
0*!
b0000000101100101010000110010000100100001110000111100000000001001 4!
#65625
1|
1*!
b100000 .!
#66250
b1100000000010010101000000000100100000000000000000000000000000000 x
b100001 z
0|
0*!
#66875
1|
0)!
1*!
b100001 .!
#67500
b0110000000001001010100000000010010000000000000000000000000000000 x
b100010 z
0|
0*!
#68125
1|
1*!
b100010 .!
#68750
b0011000000000100101010000000001001000000000000000000000000000000 x
b100011 z
0|
0*!
#69375
1|
1*!
b100011 .!
#70000
b0001100000000010010101000000000100100000000000000000000000000000 x
b100100 z
0|
0}
0*!
#70625
1|
1*!
b100100 .!
#71250
b0000110000000001001010100000000010010000000000000000000000000000 x
b100101 z
0|
0*!
#71875
1|
1*!
b100101 .!
#72500
b0000011000000000100101010000000001001000000000000000000000000000 x
b100110 z
0|
0*!
#73125
1|
1*!
b100110 .!
#73750
b0000001100000000010010101000000000100100000000000000000000000000 x
b100111 z
0|
0*!
#74375
1|
1*!
b100111 .!
#75000
b0000000110000000001001010100000000010010000000000000000000000000 x
b101000 z
0|
1}
0*!
#75625
1|
1)!
1*!
b101000 .!
#76250
b1000000011000000000100101010000000001001000000000000000000000000 x
b101001 z
0|
0*!
#76875
1|
1*!
b101001 .!
#77500
b1100000001100000000010010101000000000100100000000000000000000000 x
b101010 z
0|
0*!
#78125
1|
1*!
b101010 .!
#78750
b1110000000110000000001001010100000000010010000000000000000000000 x
b101011 z
0|
0*!
#79375
1|
1*!
b101011 .!
#80000
b1111000000011000000000100101010000000001001000000000000000000000 x
b101100 z
0|
0}
0*!
#80625
1|
0)!
1*!
b101100 .!
#81250
b0111100000001100000000010010101000000000100100000000000000000000 x
b101101 z
0|
0*!
#81875
1|
1)!
1*!
b101101 .!
#82500
b1011110000000110000000001001010100000000010010000000000000000000 x
b101110 z
0|
0*!
#83125
1|
1*!
b101110 .!
#83750
b1101111000000011000000000100101010000000001001000000000000000000 x
b101111 z
0|
0*!
#84375
1|
1*!
b101111 .!
#85000
b1110111100000001100000000010010101000000000100100000000000000000 x
b110000 z
0|
1}
0*!
#85625
1|
0)!
1*!
b110000 .!
#86250
b0111011110000000110000000001001010100000000010010000000000000000 x
b110001 z
0|
0*!
#86875
1|
1)!
1*!
b110001 .!
#87500
b1011101111000000011000000000100101010000000001001000000000000000 x
b110010 z
0|
0*!
#88125
1|
1*!
b110010 .!
#88750
b1101110111100000001100000000010010101000000000100100000000000000 x
b110011 z
0|
0*!
#89375
1|
1*!
b110011 .!
#90000
b1110111011110000000110000000001001010100000000010010000000000000 x
b110100 z
0|
0}
0*!
#90625
1|
1*!
b110100 .!
#91250
b1111011101111000000011000000000100101010000000001001000000000000 x
b110101 z
0|
0*!
#91875
1|
1*!
b110101 .!
#92500
b1111101110111100000001100000000010010101000000000100100000000000 x
b110110 z
0|
0*!
#93125
1|
0)!
1*!
b110110 .!
#93750
b0111110111011110000000110000000001001010100000000010010000000000 x
b110111 z
0|
0*!
#94375
1|
1)!
1*!
b110111 .!
#95000
b1011111011101111000000011000000000100101010000000001001000000000 x
b111000 z
0|
1}
0*!
#95625
1|
0)!
1*!
b111000 .!
#96250
b0101111101110111100000001100000000010010101000000000100100000000 x
b111001 z
0|
0*!
#96875
1|
1)!
1*!
b111001 .!
#97500
b1010111110111011110000000110000000001001010100000000010010000000 x
b111010 z
0|
0*!
#98125
1|
0)!
1*!
b111010 .!
#98750
b0101011111011101111000000011000000000100101010000000001001000000 x
b111011 z
0|
0*!
#99375
1|
1*!
b111011 .!
#100000
b0010101111101110111100000001100000000010010101000000000100100000 x
b111100 z
0|
0}
0*!
#100625
1|
1*!
b111100 .!
#101250
b0001010111110111011110000000110000000001001010100000000010010000 x
b111101 z
0|
0*!
#101875
1|
1*!
b111101 .!
#102500
b0000101011111011101111000000011000000000100101010000000001001000 x
b111110 z
0|
0*!
#103125
1|
1*!
b111110 .!
#103750
b0000010101111101110111100000001100000000010010101000000000100100 x
b111111 z
0|
0*!
#104375
1|
1*!
b111111 .!
#105000
b0000001010111110111011110000000110000000001001010100000000010010 x
b000000 z
1{
0|
1}
0*!
1-!
0/!
#105625
b001 C
b10 H
1|
b000000 .!
#106250
0|
1/!
#106875
b00001 D
1|
#107500
0|
#108125
b00010 D
1|
#108750
0|
#109375
b00011 D
1|
#110000
0|
0}
#110625
b00100 D
1|
#111250
0|
#111875
b00101 D
1|
#112500
0|
#113125
b00110 D
1|
#113750
0|
#114375
b00111 D
1|
#115000
1h
b0000001010111110111011110000000110000000001001010100000000010010 l
b001 r
0|
1}
0-!
#115625
b01000 D
1|
#116250
0|
#116875
b01001 D
1|
#117500
0|
#118125
b01010 D
1|
#118750
0|
#119375
b01011 D
1|
#120000
0|
0}
#120625
b01100 D
1|
#121250
0|
#121875
b01101 D
1|
#122500
0|
#123125
b01110 D
1|
#123750
0|
#124375
b01111 D
1|
#125000
0h
b0000001010111110111011110000000110000000001001010100000000010010 n
b010 r
0|
1}
#125625
b10000 D
1|
#126250
0|
#126875
b10001 D
1|
#127500
0|
#128125
b10010 D
1|
#128750
0|
#129375
b10011 D
1|
#130000
0|
0}
#130625
b10100 D
1|
#131250
0|
#131875
b10101 D
1|
#132500
0|
#133125
b10110 D
1|
#133750
0|
#134375
b10111 D
1|
#135000
b0000001010111110111011110000000110000000001001010100000000010010 i
1k
b0000001010111110111011110000000110000000001001010100000000010010 p
b100 r
0|
1}
#135625
b11000 D
1|
#136250
0|
#136875
b11001 D
1|
#137500
0|
#138125
b11010 D
1|
#138750
0|
#139375
b11011 D
1|
#140000
0|
0}
#140625
b11100 D
1|
#141250
0|
#141875
b11101 D
1|
#142500
0|
#143125
b11110 D
1|
#143750
0|
#144375
b11111 D
1|
#145000
b0000001010111110111011110000000110000000001001010100000000010010 ]
b01 e
0k
b000 r
0s
b01010010100010000000000000000000000000000000000000000000101111101110111100 u
0|
1}
#145625
b00000 D
b01 H
1|
1*!
#146250
b0000000101011111011101111000000011000000000100101010000000001001 x
b000001 z
0{
0|
0*!
#146875
1|
1*!
b000001 .!
#147500
b0000000010101111101110111100000001100000000010010101000000000100 x
b000010 z
0|
0*!
#148125
1|
1*!
b000010 .!
#148750
b0000000001010111110111011110000000110000000001001010100000000010 x
b000011 z
0|
0*!
#149375
1|
1*!
b000011 .!
#150000
b0000000000101011111011101111000000011000000000100101010000000001 x
b000100 z
0|
0}
0*!
#150625
1|
1*!
b000100 .!
#151250
b0000000000010101111101110111100000001100000000010010101000000000 x
b000101 z
0|
0*!
#151875
1|
1*!
b000101 .!
#152500
b0000000000001010111110111011110000000110000000001001010100000000 x
b000110 z
0|
0*!
#153125
1|
1*!
b000110 .!
#153750
b0000000000000101011111011101111000000011000000000100101010000000 x
b000111 z
0|
0*!
#154375
1|
1*!
b000111 .!
#155000
b01010010100010000000000000000000000000000000000000000000101111101110111100 S
1V
b01 X
1s
b00000000000000000000000000000000000000000000000000000000000000000000000000 u
b0000000000000010101111101110111100000001100000000010010101000000 x
b001000 z
0|
1}
0*!
#155625
1|
1*!
b001000 .!
#156250
b0000000000000001010111110111011110000000110000000001001010100000 x
b001001 z
0|
0*!
#156875
1|
1*!
b001001 .!
#157500
b0000000000000000101011111011101111000000011000000000100101010000 x
b001010 z
0|
0*!
#158125
1|
1*!
b001010 .!
#158750
b0000000000000000010101111101110111100000001100000000010010101000 x
b001011 z
0|
0*!
#159375
1|
1*!
b001011 .!
#160000
b0000000000000000001010111110111011110000000110000000001001010100 x
b001100 z
0|
0}
0*!
#160625
1|
1*!
b001100 .!
#161250
b0000000000000000000101011111011101111000000011000000000100101010 x
b001101 z
0|
0*!
#161875
1|
1*!
b001101 .!
#162500
b0000000000000000000010101111101110111100000001100000000010010101 x
b001110 z
0|
0*!
#163125
1|
1)!
1*!
b001110 .!
#163750
b1000000000000000000001010111110111011110000000110000000001001010 x
b001111 z
0|
0*!
#164375
1|
1*!
b001111 .!
#165000
0V
b00000000000000000000000000000001 W
b1100000000000000000000101011111011101111000000011000000000100101 x
b010000 z
0|
1}
0*!
0,!
#165625
1|
1*!
b010000 .!
#166250
b1110000000000000000000010101111101110111100000001100000000010010 x
b010001 z
0|
0*!
#166875
1|
1*!
b010001 .!
#167500
b1111000000000000000000001010111110111011110000000110000000001001 x
b010010 z
0|
0*!
#168125
1|
1*!
b010010 .!
#168750
b1111100000000000000000000101011111011101111000000011000000000100 x
b010011 z
0|
0*!
#169375
1|
1*!
b010011 .!
#170000
b1111110000000000000000000010101111101110111100000001100000000010 x
b010100 z
0|
0}
0*!
#170625
1|
1*!
b010100 .!
#171250
b1111111000000000000000000001010111110111011110000000110000000001 x
b010101 z
0|
0*!
#171875
1|
1*!
b010101 .!
#172500
b1111111100000000000000000000101011111011101111000000011000000000 x
b010110 z
0|
0*!
#173125
1|
1*!
b010110 .!
#173750
b1111111110000000000000000000010101111101110111100000001100000000 x
b010111 z
0|
0*!
#174375
1|
0)!
1*!
b010111 .!
#175000
b0111111111000000000000000000001010111110111011110000000110000000 x
b011000 z
0|
1}
0*!
1,!
#175625
1|
1*!
b011000 .!
#176250
b0011111111100000000000000000000101011111011101111000000011000000 x
b011001 z
0|
0*!
#176875
1|
1*!
b011001 .!
#177500
b0001111111110000000000000000000010101111101110111100000001100000 x
b011010 z
0|
0*!
#178125
1|
1*!
b011010 .!
#178750
b0000111111111000000000000000000001010111110111011110000000110000 x
b011011 z
0|
0*!
#179375
1|
1*!
b011011 .!
#180000
b0000011111111100000000000000000000101011111011101111000000011000 x
b011100 z
0|
0}
0*!
#180625
1|
1*!
b011100 .!
#181250
b0000001111111110000000000000000000010101111101110111100000001100 x
b011101 z
0|
0*!
#181875
1|
1*!
b011101 .!
#182500
b0000000111111111000000000000000000001010111110111011110000000110 x
b011110 z
0|
0*!
#183125
1|
1*!
b011110 .!
#183750
b0000000011111111100000000000000000000101011111011101111000000011 x
b011111 z
0|
0*!
#184375
1|
1*!
b011111 .!
#185000
b0000000001111111110000000000000000000010101111101110111100000001 x
b100000 z
0|
1}
0*!
#185625
1|
1*!
b100000 .!
#186250
b0000000000111111111000000000000000000001010111110111011110000000 x
b100001 z
0|
0*!
#186875
1|
1)!
1*!
b100001 .!
#187500
b1000000000011111111100000000000000000000101011111011101111000000 x
b100010 z
0|
0*!
#188125
1|
1*!
b100010 .!
#188750
b1100000000001111111110000000000000000000010101111101110111100000 x
b100011 z
0|
0*!
#189375
1|
0)!
1*!
b100011 .!
#190000
b0110000000000111111111000000000000000000001010111110111011110000 x
b100100 z
0|
0}
0*!
#190625
1|
1)!
1*!
b100100 .!
#191250
b1011000000000011111111100000000000000000000101011111011101111000 x
b100101 z
0|
0*!
#191875
1|
0)!
1*!
b100101 .!
#192500
b0101100000000001111111110000000000000000000010101111101110111100 x
b100110 z
0|
0*!
#193125
1|
1)!
1*!
b100110 .!
#193750
b1010110000000000111111111000000000000000000001010111110111011110 x
b100111 z
0|
0*!
#194375
1|
0)!
1*!
b100111 .!
#195000
b0101011000000000011111111100000000000000000000101011111011101111 x
b101000 z
0|
1}
0*!
#195625
1|
1*!
b101000 .!
#196250
b0010101100000000001111111110000000000000000000010101111101110111 x
b101001 z
0|
0*!
#196875
1|
1*!
b101001 .!
#197500
b0001010110000000000111111111000000000000000000001010111110111011 x
b101010 z
0|
0*!
#198125
1|
1)!
1*!
b101010 .!
#198750
b1000101011000000000011111111100000000000000000000101011111011101 x
b101011 z
0|
0*!
#199375
1|
0)!
1*!
b101011 .!
#200000
b0100010101100000000001111111110000000000000000000010101111101110 x
b101100 z
0|
0}
0*!
#200625
1|
1)!
1*!
b101100 .!
#201250
b1010001010110000000000111111111000000000000000000001010111110111 x
b101101 z
0|
0*!
#201875
1|
1*!
b101101 .!
#202500
b1101000101011000000000011111111100000000000000000000101011111011 x
b101110 z
0|
0*!
#203125
1|
0)!
1*!
b101110 .!
#203750
b0110100010101100000000001111111110000000000000000000010101111101 x
b101111 z
0|
0*!
#204375
1|
1*!
b101111 .!
#205000
b0011010001010110000000000111111111000000000000000000001010111110 x
b110000 z
0|
1}
0*!
#205625
1|
1*!
b110000 .!
#206250
b0001101000101011000000000011111111100000000000000000000101011111 x
b110001 z
0|
0*!
#206875
1|
1)!
1*!
b110001 .!
#207500
b1000110100010101100000000001111111110000000000000000000010101111 x
b110010 z
0|
0*!
#208125
1|
0)!
1*!
b110010 .!
#208750
b0100011010001010110000000000111111111000000000000000000001010111 x
b110011 z
0|
0*!
#209375
1|
1*!
b110011 .!
#210000
b0010001101000101011000000000011111111100000000000000000000101011 x
b110100 z
0|
0}
0*!
#210625
1|
1)!
1*!
b110100 .!
#211250
b1001000110100010101100000000001111111110000000000000000000010101 x
b110101 z
0|
0*!
#211875
1|
0)!
1*!
b110101 .!
#212500
b0100100011010001010110000000000111111111000000000000000000001010 x
b110110 z
0|
0*!
#213125
1|
1*!
b110110 .!
#213750
b0010010001101000101011000000000011111111100000000000000000000101 x
b110111 z
0|
0*!
#214375
1|
1*!
b110111 .!
#215000
b0001001000110100010101100000000001111111110000000000000000000010 x
b111000 z
0|
1}
0*!
#215625
1|
1*!
b111000 .!
#216250
b0000100100011010001010110000000000111111111000000000000000000001 x
b111001 z
0|
0*!
#216875
1|
1*!
b111001 .!
#217500
b0000010010001101000101011000000000011111111100000000000000000000 x
b111010 z
0|
0*!
#218125
1|
1*!
b111010 .!
#218750
b0000001001000110100010101100000000001111111110000000000000000000 x
b111011 z
0|
0*!
#219375
1|
1*!
b111011 .!
#220000
b0000000100100011010001010110000000000111111111000000000000000000 x
b111100 z
0|
0}
0*!
#220625
1|
1*!
b111100 .!
#221250
b0000000010010001101000101011000000000011111111100000000000000000 x
b111101 z
0|
0*!
#221875
1|
1)!
1*!
b111101 .!
#222500
b1000000001001000110100010101100000000001111111110000000000000000 x
b111110 z
0|
0*!
#223125
1|
0)!
1*!
b111110 .!
#223750
b0100000000100100011010001010110000000000111111111000000000000000 x
b111111 z
0|
0*!
#224375
1|
1*!
b111111 .!
#225000
b0010000000010010001101000101011000000000011111111100000000000000 x
b000000 z
1{
0|
1}
0*!
1-!
0/!
#225625
b010 C
b10 H
1|
b000000 .!
#226250
0|
1/!
#226875
b00001 D
1|
#227500
0|
#228125
b00010 D
1|
#228750
0|
#229375
b00011 D
1|
#230000
0|
0}
#230625
b00100 D
1|
#231250
0|
